test_run_dir/MatMulSC_should_multiply_in4x2_x_in2x4_full_parallelism/MatMulSC.vcd
$date
2024-03-01T20:58+0000
$end
$version
0.2
$end
$comment

$end
$timescale 1ns  $end
$scope module MatMulSC $end
 $var wire 32 ! io_out_bits_1_2 $end
 $var wire 32 " io_out_bits_1_1 $end
 $var wire 32 # io_out_bits_1_3 $end
 $var wire 32 $ io_out_bits_1_0 $end
 $var wire 2 % kCounter $end
 $var wire 1 & computeDone $end
 $var wire 1 ' io_in_ready $end
 $var wire 32 ( aReg_3_1 $end
 $var wire 32 ) aReg_3_0 $end
 $var wire 32 * io_in_bits_b_1_2 $end
 $var wire 32 + io_in_bits_b_1_1 $end
 $var wire 32 , io_in_bits_b_1_0 $end
 $var wire 32 - io_in_bits_b_1_3 $end
 $var wire 64 . product $end
 $var wire 32 / aReg_1_1 $end
 $var wire 32 0 aReg_1_0 $end
 $var wire 32 1 io_out_bits_3_0 $end
 $var wire 32 2 io_out_bits_3_2 $end
 $var wire 32 3 io_out_bits_3_1 $end
 $var wire 1 4 clock $end
 $var wire 64 5 product_2 $end
 $var wire 32 6 io_out_bits_3_3 $end
 $var wire 64 7 product_3 $end
 $var wire 64 8 product_1 $end
 $var wire 32 9 io_in_bits_a_3_1 $end
 $var wire 32 : io_in_bits_a_3_0 $end
 $var wire 32 ; io_in_bits_a_1_0 $end
 $var wire 32 < io_in_bits_a_1_1 $end
 $var wire 3 = colIndex_3 $end
 $var wire 3 > colIndex_1 $end
 $var wire 3 ? colIndex_2 $end
 $var wire 3 @ rowCounter $end
 $var wire 32 A bReg_0_3 $end
 $var wire 32 B bReg_0_2 $end
 $var wire 32 C bReg_0_1 $end
 $var wire 32 D bReg_0_0 $end
 $var wire 32 E cReg_3_0 $end
 $var wire 32 F cReg_3_1 $end
 $var wire 32 G cReg_3_2 $end
 $var wire 32 H cReg_3_3 $end
 $var wire 1 I reset $end
 $var wire 32 J cReg_1_0 $end
 $var wire 32 K cReg_1_1 $end
 $var wire 32 L cReg_1_2 $end
 $var wire 32 M cReg_1_3 $end
 $var wire 32 N io_out_bits_0_3 $end
 $var wire 32 O io_out_bits_0_2 $end
 $var wire 32 P io_out_bits_0_1 $end
 $var wire 32 Q io_out_bits_0_0 $end
 $var wire 1 R io_out_valid $end
 $var wire 3 S colCounter $end
 $var wire 1 T io_in_valid $end
 $var wire 32 U aReg_2_0 $end
 $var wire 32 V aReg_2_1 $end
 $var wire 32 W io_out_bits_2_1 $end
 $var wire 32 X io_out_bits_2_0 $end
 $var wire 32 Y io_out_bits_2_3 $end
 $var wire 32 Z io_out_bits_2_2 $end
 $var wire 32 [ aReg_0_0 $end
 $var wire 32 \ aReg_0_1 $end
 $var wire 32 ] io_in_bits_a_2_0 $end
 $var wire 32 ^ io_in_bits_a_2_1 $end
 $var wire 32 _ io_in_bits_b_0_3 $end
 $var wire 32 ` io_in_bits_b_0_2 $end
 $var wire 32 a io_in_bits_b_0_1 $end
 $var wire 32 b io_in_bits_b_0_0 $end
 $var wire 32 c bReg_1_2 $end
 $var wire 32 d bReg_1_1 $end
 $var wire 32 e bReg_1_0 $end
 $var wire 32 f bReg_1_3 $end
 $var wire 32 g io_in_bits_a_0_0 $end
 $var wire 32 h io_in_bits_a_0_1 $end
 $var wire 32 i cReg_2_0 $end
 $var wire 32 j cReg_2_1 $end
 $var wire 32 k cReg_2_2 $end
 $var wire 3 l colIndex $end
 $var wire 32 m cReg_2_3 $end
 $var wire 32 n cReg_0_1 $end
 $var wire 32 o cReg_0_2 $end
 $var wire 1 p computing $end
 $var wire 32 q cReg_0_3 $end
 $var wire 32 r cReg_0_0 $end
$upscope $end
$enddefinitions $end
$dumpvars
b0000000000000000000000000000000000000000000000000000000000000000 8
b00000000000000000000000000000000 +
b00000000000000000000000000000000 *
b00000000000000000000000000000000 -
b0000000000000000000000000000000000000000000000000000000000000000 7
b00000000000000000000000000000000 ,
04
b00000000000000000000000000000000 )
b00000000000000000000000000000000 (
b00000000000000000000000000000000 #
b00000000000000000000000000000000 "
b0000000000000000000000000000000000000000000000000000000000000000 .
b00000000000000000000000000000000 $
b0000000000000000000000000000000000000000000000000000000000000000 5
b00000000000000000000000000000000 !
b00000000000000000000000000000000 ;
b00000000000000000000000000000000 :
b00000000000000000000000000000000 <
b00000000000000000000000000000000 6
b00000000000000000000000000000000 9
b00000000000000000000000000000000 3
0I
b00000000000000000000000000000000 2
b00 %
b00000000000000000000000000000000 /
b00000000000000000000000000000000 1
b00000000000000000000000000000000 0
0R
0T
b000 l
b000 S
0p
b00000000000000000000000000000000 k
b00000000000000000000000000000000 j
b00000000000000000000000000000000 m
b00000000000000000000000000000000 g
b00000000000000000000000000000000 f
b00000000000000000000000000000000 i
b00000000000000000000000000000000 h
b00000000000000000000000000000000 c
b00000000000000000000000000000000 b
b00000000000000000000000000000000 e
b00000000000000000000000000000000 d
b00000000000000000000000000000000 _
b00000000000000000000000000000000 ^
b00000000000000000000000000000000 a
b00000000000000000000000000000000 `
b000 ?
b000 >
b00000000000000000000000000000000 r
b000 @
b00000000000000000000000000000000 o
b00000000000000000000000000000000 n
b000 =
b00000000000000000000000000000000 q
b00000000000000000000000000000000 K
b00000000000000000000000000000000 J
b00000000000000000000000000000000 M
b00000000000000000000000000000000 L
b00000000000000000000000000000000 G
b00000000000000000000000000000000 F
b00000000000000000000000000000000 H
b00000000000000000000000000000000 C
b00000000000000000000000000000000 B
b00000000000000000000000000000000 E
b00000000000000000000000000000000 D
b00000000000000000000000000000000 A
b00000000000000000000000000000000 [
b00000000000000000000000000000000 Z
b00000000000000000000000000000000 ]
b00000000000000000000000000000000 \
b00000000000000000000000000000000 W
b00000000000000000000000000000000 V
0&
b00000000000000000000000000000000 Y
0'
b00000000000000000000000000000000 X
b00000000000000000000000000000000 U
b00000000000000000000000000000000 O
b00000000000000000000000000000000 N
b00000000000000000000000000000000 Q
b00000000000000000000000000000000 P
$end
#0
1'
1I
b011 =
b001 >
b010 ?
#1
14
#6
b00000000000000000000000000000011 `
b00000000000000000000000000000010 a
b00000000000000000000000000000001 b
b00000000000000000000000000000001 g
b00000000000000000000000000000010 h
0I
b00000000000000000000000000000111 *
b00000000000000000000000000000110 +
b00000000000000000000000000000101 ,
b00000000000000000000000000001000 -
04
1T
b00000000000000000000000000001000 9
b00000000000000000000000000000111 :
b00000000000000000000000000000011 ;
b00000000000000000000000000000100 <
b00000000000000000000000000000101 ]
b00000000000000000000000000000110 ^
b00000000000000000000000000000100 _
#11
b00000000000000000000000000000100 A
b00000000000000000000000000000011 B
b00000000000000000000000000000010 C
b00000000000000000000000000000111 c
b00000000000000000000000000000001 D
b00000000000000000000000000000110 d
b00000000000000000000000000000101 e
b00000000000000000000000000001000 f
0'
b00000000000000000000000000001000 (
b00000000000000000000000000000111 )
b0000000000000000000000000000000000000000000000000000000000000001 .
b00000000000000000000000000000100 /
b00000000000000000000000000000011 0
1p
14
b0000000000000000000000000000000000000000000000000000000000000011 5
b00000000000000000000000000000101 U
b00000000000000000000000000000110 V
b0000000000000000000000000000000000000000000000000000000000000100 7
b0000000000000000000000000000000000000000000000000000000000000010 8
b00000000000000000000000000000001 [
b00000000000000000000000000000010 \
#16
04
#21
b01 %
b0000000000000000000000000000000000000000000000000000000000001010 .
b00000000000000000000000000000100 N
b00000000000000000000000000000010 n
b00000000000000000000000000000011 O
b00000000000000000000000000000011 o
b00000000000000000000000000000010 P
b00000000000000000000000000000001 Q
b00000000000000000000000000000100 q
b00000000000000000000000000000001 r
14
b0000000000000000000000000000000000000000000000000000000000001110 5
b0000000000000000000000000000000000000000000000000000000000010000 7
b0000000000000000000000000000000000000000000000000000000000001100 8
#26
04
#31
b001 @
b00 %
b0000000000000000000000000000000000000000000000000000000000000011 .
b00000000000000000000000000010100 N
b00000000000000000000000000001110 n
b00000000000000000000000000010001 O
b00000000000000000000000000010001 o
b00000000000000000000000000001110 P
b00000000000000000000000000001011 Q
b00000000000000000000000000010100 q
b00000000000000000000000000001011 r
14
b0000000000000000000000000000000000000000000000000000000000001001 5
b0000000000000000000000000000000000000000000000000000000000001100 7
b0000000000000000000000000000000000000000000000000000000000000110 8
#36
04
#41
b00000000000000000000000000001001 !
b00000000000000000000000000000110 "
b00000000000000000000000000001100 #
b00000000000000000000000000000011 $
b01 %
b00000000000000000000000000000011 J
b00000000000000000000000000000110 K
b00000000000000000000000000001001 L
b00000000000000000000000000001100 M
b0000000000000000000000000000000000000000000000000000000000010100 .
14
b0000000000000000000000000000000000000000000000000000000000011100 5
b0000000000000000000000000000000000000000000000000000000000100000 7
b0000000000000000000000000000000000000000000000000000000000011000 8
#46
04
#51
b010 @
b00000000000000000000000000100101 !
b00000000000000000000000000011110 "
b00000000000000000000000000101100 #
b00000000000000000000000000010111 $
b00 %
b00000000000000000000000000010111 J
b00000000000000000000000000011110 K
b00000000000000000000000000100101 L
b00000000000000000000000000101100 M
b0000000000000000000000000000000000000000000000000000000000000101 .
14
b0000000000000000000000000000000000000000000000000000000000001111 5
b0000000000000000000000000000000000000000000000000000000000010100 7
b0000000000000000000000000000000000000000000000000000000000001010 8
#56
04
#61
b01 %
b00000000000000000000000000000101 i
b00000000000000000000000000001010 j
b00000000000000000000000000001111 k
b00000000000000000000000000010100 m
b0000000000000000000000000000000000000000000000000000000000011110 .
14
b0000000000000000000000000000000000000000000000000000000000101010 5
b0000000000000000000000000000000000000000000000000000000000110000 7
b00000000000000000000000000001010 W
b0000000000000000000000000000000000000000000000000000000000100100 8
b00000000000000000000000000000101 X
b00000000000000000000000000010100 Y
b00000000000000000000000000001111 Z
#66
04
#71
b011 @
b00 %
b00000000000000000000000000100011 i
b00000000000000000000000000101110 j
b00000000000000000000000000111001 k
b00000000000000000000000001000100 m
b0000000000000000000000000000000000000000000000000000000000000111 .
14
b0000000000000000000000000000000000000000000000000000000000010101 5
b0000000000000000000000000000000000000000000000000000000000011100 7
b00000000000000000000000000101110 W
b0000000000000000000000000000000000000000000000000000000000001110 8
b00000000000000000000000000100011 X
b00000000000000000000000001000100 Y
b00000000000000000000000000111001 Z
#76
04
#81
b01 %
b00000000000000000000000000000111 E
b00000000000000000000000000001110 F
b00000000000000000000000000010101 G
b00000000000000000000000000011100 H
b0000000000000000000000000000000000000000000000000000000000101000 .
b00000000000000000000000000000111 1
b00000000000000000000000000010101 2
b00000000000000000000000000001110 3
14
b0000000000000000000000000000000000000000000000000000000000111000 5
b00000000000000000000000000011100 6
b0000000000000000000000000000000000000000000000000000000001000000 7
b0000000000000000000000000000000000000000000000000000000000110000 8
#86
04
#91
b00 %
b00000000000000000000000000101111 E
1&
b00000000000000000000000000111110 F
1'
b00000000000000000000000001001101 G
b00000000000000000000000001011100 H
b0000000000000000000000000000000000000000000000000000000000000111 .
0p
b00000000000000000000000000101111 1
b00000000000000000000000001001101 2
1R
b00000000000000000000000000111110 3
14
b0000000000000000000000000000000000000000000000000000000000010101 5
b00000000000000000000000001011100 6
b0000000000000000000000000000000000000000000000000000000000011100 7
b0000000000000000000000000000000000000000000000000000000000001110 8
#96
b00000000000000000000000000000000 `
b00000000000000000000000000000000 a
b00000000000000000000000000000000 b
b00000000000000000000000000000000 g
b00000000000000000000000000000000 h
b00000000000000000000000000000000 *
b00000000000000000000000000000000 +
b00000000000000000000000000000000 ,
b00000000000000000000000000000000 -
04
0T
b00000000000000000000000000000000 9
b00000000000000000000000000000000 :
b00000000000000000000000000000000 ;
b00000000000000000000000000000000 <
b00000000000000000000000000000000 ]
b00000000000000000000000000000000 ^
b00000000000000000000000000000000 _
