test_run_dir/MatMulSC_should_multiply_in4x2_x_in2x4_no_parallelism/MatMulSC.vcd
$date
2024-03-01T20:58+0000
$end
$version
0.2
$end
$comment

$end
$timescale 1ns  $end
$scope module MatMulSC $end
 $var wire 32 ! io_out_bits_1_2 $end
 $var wire 32 " io_out_bits_1_1 $end
 $var wire 32 # io_out_bits_1_3 $end
 $var wire 32 $ io_out_bits_1_0 $end
 $var wire 32 % io_out_bits_0_3 $end
 $var wire 32 & io_out_bits_0_2 $end
 $var wire 32 ' io_out_bits_0_1 $end
 $var wire 32 ( io_out_bits_0_0 $end
 $var wire 2 ) kCounter $end
 $var wire 1 * computeDone $end
 $var wire 1 + io_in_ready $end
 $var wire 1 , io_out_valid $end
 $var wire 32 - aReg_3_1 $end
 $var wire 32 . aReg_3_0 $end
 $var wire 3 / colCounter $end
 $var wire 1 0 io_in_valid $end
 $var wire 32 1 io_in_bits_b_1_2 $end
 $var wire 32 2 io_in_bits_b_1_1 $end
 $var wire 32 3 io_in_bits_b_1_0 $end
 $var wire 32 4 io_in_bits_b_1_3 $end
 $var wire 64 5 product $end
 $var wire 32 6 aReg_1_1 $end
 $var wire 32 7 aReg_1_0 $end
 $var wire 32 8 io_out_bits_3_0 $end
 $var wire 32 9 io_out_bits_3_2 $end
 $var wire 32 : io_out_bits_3_1 $end
 $var wire 1 ; clock $end
 $var wire 32 < io_out_bits_3_3 $end
 $var wire 32 = io_in_bits_a_3_1 $end
 $var wire 32 > io_in_bits_a_3_0 $end
 $var wire 32 ? aReg_2_0 $end
 $var wire 32 @ aReg_2_1 $end
 $var wire 32 A io_out_bits_2_1 $end
 $var wire 32 B io_out_bits_2_0 $end
 $var wire 32 C io_out_bits_2_3 $end
 $var wire 32 D io_out_bits_2_2 $end
 $var wire 32 E io_in_bits_a_1_0 $end
 $var wire 32 F io_in_bits_a_1_1 $end
 $var wire 32 G aReg_0_0 $end
 $var wire 32 H aReg_0_1 $end
 $var wire 32 I io_in_bits_a_2_0 $end
 $var wire 32 J io_in_bits_a_2_1 $end
 $var wire 32 K io_in_bits_b_0_3 $end
 $var wire 32 L io_in_bits_b_0_2 $end
 $var wire 32 M io_in_bits_b_0_1 $end
 $var wire 32 N io_in_bits_b_0_0 $end
 $var wire 32 O bReg_1_2 $end
 $var wire 32 P bReg_1_1 $end
 $var wire 32 Q bReg_1_0 $end
 $var wire 32 R bReg_1_3 $end
 $var wire 3 S rowCounter $end
 $var wire 32 T bReg_0_3 $end
 $var wire 32 U bReg_0_2 $end
 $var wire 32 V bReg_0_1 $end
 $var wire 32 W bReg_0_0 $end
 $var wire 32 X io_in_bits_a_0_0 $end
 $var wire 32 Y io_in_bits_a_0_1 $end
 $var wire 32 Z cReg_3_0 $end
 $var wire 32 [ cReg_3_1 $end
 $var wire 32 \ cReg_3_2 $end
 $var wire 32 ] cReg_3_3 $end
 $var wire 1 ^ reset $end
 $var wire 32 _ cReg_2_0 $end
 $var wire 32 ` cReg_2_1 $end
 $var wire 32 a cReg_2_2 $end
 $var wire 3 b colIndex $end
 $var wire 32 c cReg_2_3 $end
 $var wire 32 d cReg_1_0 $end
 $var wire 32 e cReg_1_1 $end
 $var wire 32 f cReg_1_2 $end
 $var wire 32 g cReg_1_3 $end
 $var wire 32 h cReg_0_1 $end
 $var wire 32 i cReg_0_2 $end
 $var wire 1 j computing $end
 $var wire 32 k cReg_0_3 $end
 $var wire 32 l cReg_0_0 $end
$upscope $end
$enddefinitions $end
$dumpvars
00
b00000000000000000000000000000000 -
b00000000000000000000000000000000 '
b00000000000000000000000000000000 &
b00000000000000000000000000000000 (
b00000000000000000000000000000000 #
b00000000000000000000000000000000 "
b00000000000000000000000000000000 %
0;
b00000000000000000000000000000000 $
b0000000000000000000000000000000000000000000000000000000000000000 5
b00000000000000000000000000000000 !
b00 )
b00000000000000000000000000000000 :
b00000000000000000000000000000000 =
b00000000000000000000000000000000 <
b00000000000000000000000000000000 7
b00000000000000000000000000000000 6
b00000000000000000000000000000000 9
b00000000000000000000000000000000 8
b00000000000000000000000000000000 3
b00000000000000000000000000000000 2
b00000000000000000000000000000000 4
b00000000000000000000000000000000 .
b00000000000000000000000000000000 1
b000 b
0^
b000 S
0j
b00000000000000000000000000000000 k
b00000000000000000000000000000000 l
b00000000000000000000000000000000 g
b00000000000000000000000000000000 f
b00000000000000000000000000000000 i
b00000000000000000000000000000000 h
b00000000000000000000000000000000 c
b00000000000000000000000000000000 e
b00000000000000000000000000000000 d
b00000000000000000000000000000000 _
b00000000000000000000000000000000 a
b00000000000000000000000000000000 `
b00000000000000000000000000000000 K
b00000000000000000000000000000000 J
b00000000000000000000000000000000 M
b00000000000000000000000000000000 L
b00000000000000000000000000000000 G
b00000000000000000000000000000000 F
b00000000000000000000000000000000 I
b00000000000000000000000000000000 H
b000 /
b00000000000000000000000000000000 C
b00000000000000000000000000000000 B
b00000000000000000000000000000000 E
b00000000000000000000000000000000 D
b00000000000000000000000000000000 ?
b00000000000000000000000000000000 >
b00000000000000000000000000000000 A
b00000000000000000000000000000000 @
b00000000000000000000000000000000 [
b00000000000000000000000000000000 Z
b00000000000000000000000000000000 ]
b00000000000000000000000000000000 \
b00000000000000000000000000000000 W
b00000000000000000000000000000000 V
b00000000000000000000000000000000 Y
b00000000000000000000000000000000 X
b00000000000000000000000000000000 R
0*
b00000000000000000000000000000000 U
0+
b00000000000000000000000000000000 T
0,
b00000000000000000000000000000000 O
b00000000000000000000000000000000 N
b00000000000000000000000000000000 Q
b00000000000000000000000000000000 P
$end
#0
1+
1^
#1
1;
#6
b00000000000000000000000000000011 E
b00000000000000000000000000000100 F
b00000000000000000000000000000101 I
b00000000000000000000000000000110 J
b00000000000000000000000000000100 K
b00000000000000000000000000000011 L
b00000000000000000000000000000010 M
b00000000000000000000000000000001 N
10
b00000000000000000000000000000111 1
b00000000000000000000000000000110 2
b00000000000000000000000000000101 3
b00000000000000000000000000001000 4
b00000000000000000000000000000001 X
b00000000000000000000000000000010 Y
0;
b00000000000000000000000000001000 =
b00000000000000000000000000000111 >
0^
#11
b00000000000000000000000000000110 @
b00000000000000000000000000000001 G
b00000000000000000000000000000010 H
1j
0+
b00000000000000000000000000001000 -
b00000000000000000000000000000111 .
b00000000000000000000000000000111 O
b00000000000000000000000000000110 P
b00000000000000000000000000000101 Q
b00000000000000000000000000001000 R
b00000000000000000000000000000100 T
b0000000000000000000000000000000000000000000000000000000000000001 5
b00000000000000000000000000000011 U
b00000000000000000000000000000100 6
b00000000000000000000000000000010 V
b00000000000000000000000000000011 7
b00000000000000000000000000000001 W
1;
b00000000000000000000000000000101 ?
#16
0;
#21
b0000000000000000000000000000000000000000000000000000000000001010 5
b00000000000000000000000000000001 (
b01 )
1;
b00000000000000000000000000000001 l
#26
0;
#31
b001 b
b0000000000000000000000000000000000000000000000000000000000000010 5
b00000000000000000000000000001011 (
b00 )
1;
b00000000000000000000000000001011 l
b001 /
#36
0;
#41
b0000000000000000000000000000000000000000000000000000000000001100 5
b00000000000000000000000000000010 '
b00000000000000000000000000000010 h
b01 )
1;
#46
0;
#51
b010 b
b0000000000000000000000000000000000000000000000000000000000000011 5
b00000000000000000000000000001110 '
b00000000000000000000000000001110 h
b00 )
1;
b010 /
#56
0;
#61
b0000000000000000000000000000000000000000000000000000000000001110 5
b00000000000000000000000000000011 &
b01 )
b00000000000000000000000000000011 i
1;
#66
0;
#71
b011 b
b0000000000000000000000000000000000000000000000000000000000000100 5
b00000000000000000000000000010001 &
b00 )
b00000000000000000000000000010001 i
1;
b011 /
#76
0;
#81
b00000000000000000000000000000100 %
b0000000000000000000000000000000000000000000000000000000000010000 5
b01 )
1;
b00000000000000000000000000000100 k
#86
0;
#91
b000 b
b001 S
b00000000000000000000000000010100 %
b0000000000000000000000000000000000000000000000000000000000000011 5
b00 )
1;
b00000000000000000000000000010100 k
b000 /
#96
0;
#101
b00000000000000000000000000000011 $
b00000000000000000000000000000011 d
b0000000000000000000000000000000000000000000000000000000000010100 5
b01 )
1;
#106
0;
#111
b001 b
b00000000000000000000000000010111 $
b00000000000000000000000000010111 d
b0000000000000000000000000000000000000000000000000000000000000110 5
b00 )
1;
b001 /
#116
0;
#121
b00000000000000000000000000000110 "
b0000000000000000000000000000000000000000000000000000000000011000 5
b00000000000000000000000000000110 e
b01 )
1;
#126
0;
#131
b00000000000000000000000000011110 "
b010 b
b0000000000000000000000000000000000000000000000000000000000001001 5
b00000000000000000000000000011110 e
b00 )
1;
b010 /
#136
0;
#141
b00000000000000000000000000001001 !
b0000000000000000000000000000000000000000000000000000000000011100 5
b00000000000000000000000000001001 f
b01 )
1;
#146
0;
#151
b00000000000000000000000000100101 !
b011 b
b0000000000000000000000000000000000000000000000000000000000001100 5
b00000000000000000000000000100101 f
b00 )
1;
b011 /
#156
0;
#161
b00000000000000000000000000001100 #
b0000000000000000000000000000000000000000000000000000000000100000 5
b00000000000000000000000000001100 g
b01 )
1;
#166
0;
#171
b000 b
b00000000000000000000000000101100 #
b010 S
b0000000000000000000000000000000000000000000000000000000000000101 5
b00000000000000000000000000101100 g
b00 )
1;
b000 /
#176
0;
#181
b00000000000000000000000000000101 B
b0000000000000000000000000000000000000000000000000000000000011110 5
b01 )
1;
b00000000000000000000000000000101 _
#186
0;
#191
b00000000000000000000000000100011 B
b001 b
b0000000000000000000000000000000000000000000000000000000000001010 5
b00 )
1;
b001 /
b00000000000000000000000000100011 _
#196
0;
#201
b00000000000000000000000000001010 `
b00000000000000000000000000001010 A
b0000000000000000000000000000000000000000000000000000000000100100 5
b01 )
1;
#206
0;
#211
b00000000000000000000000000101110 `
b00000000000000000000000000101110 A
b010 b
b0000000000000000000000000000000000000000000000000000000000001111 5
b00 )
1;
b010 /
#216
0;
#221
b00000000000000000000000000001111 a
b00000000000000000000000000001111 D
b0000000000000000000000000000000000000000000000000000000000101010 5
b01 )
1;
#226
0;
#231
b00000000000000000000000000111001 a
b011 b
b00000000000000000000000000111001 D
b0000000000000000000000000000000000000000000000000000000000010100 5
b00 )
1;
b011 /
#236
0;
#241
b00000000000000000000000000010100 C
b00000000000000000000000000010100 c
b0000000000000000000000000000000000000000000000000000000000110000 5
b01 )
1;
#246
0;
#251
b000 b
b00000000000000000000000001000100 C
b011 S
b00000000000000000000000001000100 c
b0000000000000000000000000000000000000000000000000000000000000111 5
b00 )
1;
b000 /
#256
0;
#261
b0000000000000000000000000000000000000000000000000000000000101000 5
b00000000000000000000000000000111 8
b01 )
b00000000000000000000000000000111 Z
1;
#266
0;
#271
b001 b
b0000000000000000000000000000000000000000000000000000000000001110 5
b00000000000000000000000000101111 8
b00 )
b00000000000000000000000000101111 Z
1;
b001 /
#276
0;
#281
b0000000000000000000000000000000000000000000000000000000000110000 5
b01 )
b00000000000000000000000000001110 :
1;
b00000000000000000000000000001110 [
#286
0;
#291
b010 b
b0000000000000000000000000000000000000000000000000000000000010101 5
b00 )
b00000000000000000000000000111110 :
1;
b00000000000000000000000000111110 [
b010 /
#296
0;
#301
b0000000000000000000000000000000000000000000000000000000000111000 5
b01 )
b00000000000000000000000000010101 9
1;
b00000000000000000000000000010101 \
#306
0;
#311
b011 b
b0000000000000000000000000000000000000000000000000000000000011100 5
b00 )
b00000000000000000000000001001101 9
1;
b00000000000000000000000001001101 \
b011 /
#316
0;
#321
b0000000000000000000000000000000000000000000000000000000001000000 5
b01 )
1;
b00000000000000000000000000011100 <
b00000000000000000000000000011100 ]
#326
0;
#331
b000 b
b0000000000000000000000000000000000000000000000000000000000000111 5
b00 )
1*
0j
1+
1;
1,
b00000000000000000000000001011100 <
b00000000000000000000000001011100 ]
b000 /
#336
b00000000000000000000000000000000 E
b00000000000000000000000000000000 F
b00000000000000000000000000000000 I
b00000000000000000000000000000000 J
b00000000000000000000000000000000 K
b00000000000000000000000000000000 L
b00000000000000000000000000000000 M
b00000000000000000000000000000000 N
00
b00000000000000000000000000000000 1
b00000000000000000000000000000000 2
b00000000000000000000000000000000 3
b00000000000000000000000000000000 4
b00000000000000000000000000000000 X
b00000000000000000000000000000000 Y
0;
b00000000000000000000000000000000 =
b00000000000000000000000000000000 >
