test_run_dir/MatMulMC_should_multiply_in2x4_x_in4x2_no_parallelism/MatMulMC.vcd
$date
2024-03-01T20:58+0000
$end
$version
0.2
$end
$comment

$end
$timescale 1ns  $end
$scope module MatMulMC $end
 $var wire 2 ! colBIdx $end
 $var wire 32 " matrixAInternal_0_0 $end
 $var wire 32 # matrixAInternal_0_1 $end
 $var wire 32 $ matrixAInternal_0_2 $end
 $var wire 32 % matrixBInternal_0_1 $end
 $var wire 32 & matrixAInternal_0_3 $end
 $var wire 32 ' matrixBInternal_0_0 $end
 $var wire 32 ( io_in_bits_bBlock_1 $end
 $var wire 32 ) io_in_bits_bBlock_0 $end
 $var wire 2 * colCIdx $end
 $var wire 32 + matrixBInternal_2_1 $end
 $var wire 32 , matrixBInternal_2_0 $end
 $var wire 3 - colAIdx $end
 $var wire 32 . matrixBInternal_1_1 $end
 $var wire 32 / matrixBInternal_1_0 $end
 $var wire 1 0 io_in_ready $end
 $var wire 4 1 rowAIdx $end
 $var wire 1 2 outputValid $end
 $var wire 32 3 io_in_bits_aBlock_1 $end
 $var wire 32 4 io_in_bits_aBlock_0 $end
 $var wire 2 5 colCounter $end
 $var wire 1 6 io_in_valid $end
 $var wire 64 7 product $end
 $var wire 4 8 rowBIdx $end
 $var wire 1 9 stateOutputting $end
 $var wire 3 : innerCounter $end
 $var wire 1 ; clock $end
 $var wire 3 < colAIdx_1 $end
 $var wire 32 = resultMatrix_1_1 $end
 $var wire 32 > resultMatrix_1_0 $end
 $var wire 1 ? stateLoadMatrices $end
 $var wire 1 @ inputReady $end
 $var wire 2 A colIdx $end
 $var wire 32 B resultMatrix_0_1 $end
 $var wire 32 C resultMatrix_0_0 $end
 $var wire 2 D colBIdx_1 $end
 $var wire 4 E rowAIdx_1 $end
 $var wire 4 F rowBIdx_1 $end
 $var wire 4 G loadCounterA $end
 $var wire 4 H loadCounterB $end
 $var wire 3 I loadCounterC $end
 $var wire 2 J rowCounter $end
 $var wire 32 K io_outBlock_bits_0 $end
 $var wire 3 L rowCIdx $end
 $var wire 4 M currIndA_1 $end
 $var wire 1 N reset $end
 $var wire 1 O io_outBlock_valid $end
 $var wire 4 P currIndB_1 $end
 $var wire 32 Q matrixBInternal_3_1 $end
 $var wire 32 R matrixBInternal_3_0 $end
 $var wire 1 S stateMultiplying $end
 $var wire 1 T stateIdle $end
 $var wire 3 U currIndC $end
 $var wire 4 V currIndB $end
 $var wire 4 W currIndA $end
 $var wire 32 X matrixAInternal_1_0 $end
 $var wire 32 Y matrixAInternal_1_1 $end
 $var wire 32 Z matrixAInternal_1_2 $end
 $var wire 32 [ matrixAInternal_1_3 $end
$upscope $end
$enddefinitions $end
$dumpvars
00
b00000000000000000000000000000000 +
02
b0000000000000000000000000000000000000000000000000000000000000000 7
b00000000000000000000000000000000 ,
b00000000000000000000000000000000 '
b00000000000000000000000000000000 &
06
b00000000000000000000000000000000 )
b00000000000000000000000000000000 (
b00000000000000000000000000000000 #
09
b00000000000000000000000000000000 "
b00000000000000000000000000000000 %
0;
b00000000000000000000000000000000 $
b00 5
0?
0@
b00000000000000000000000000000000 =
b00 *
b00 !
b00000000000000000000000000000000 3
b00000000000000000000000000000000 4
b00000000000000000000000000000000 /
b00000000000000000000000000000000 .
0N
0O
0S
0T
b0000 1
b000 U
b0000 8
b0000 E
b000 I
b0000 M
b0000 H
b0000 F
b0000 G
b000 L
b0000 P
b000 :
b0000 V
b0000 W
b000 <
b00000000000000000000000000000000 K
b00000000000000000000000000000000 C
b00000000000000000000000000000000 B
b00000000000000000000000000000000 >
b000 -
b00000000000000000000000000000000 [
b00000000000000000000000000000000 Z
b00000000000000000000000000000000 Y
b00 J
b00000000000000000000000000000000 X
b00 A
b00000000000000000000000000000000 R
b00 D
b00000000000000000000000000000000 Q
$end
#0
b0001 P
b01 D
b001 <
b0001 M
1N
#1
10
1@
1T
1;
#6
16
0;
0N
#11
0T
1;
1?
#16
b00000000000000000000000000000010 3
b00000000000000000000000000000001 4
b00000000000000000000000000000010 (
b00000000000000000000000000000001 )
0;
#21
b00000000000000000000000000000001 "
b00000000000000000000000000000010 #
b00000000000000000000000000000010 %
b0001 F
b00000000000000000000000000000001 '
b0010 G
b0010 H
b010 -
b0011 M
b0011 P
b0010 V
b0000000000000000000000000000000000000000000000000000000000000001 7
b0010 W
b0001 8
1;
b011 <
#26
b00000000000000000000000000000100 3
b00000000000000000000000000000011 4
b00000000000000000000000000000100 (
b00000000000000000000000000000011 )
0;
#31
b00000000000000000000000000000011 $
b0001 E
b00000000000000000000000000000100 &
b0010 F
b0100 G
b0100 H
b000 -
b0101 M
b00000000000000000000000000000100 .
b00000000000000000000000000000011 /
b0101 P
b0001 1
b0100 V
b0100 W
b0010 8
1;
b001 <
#36
b00000000000000000000000000000110 3
b00000000000000000000000000000101 4
b00000000000000000000000000000110 (
b00000000000000000000000000000101 )
0;
#41
b0011 F
b0110 G
b0110 H
b00000000000000000000000000000110 +
b00000000000000000000000000000101 ,
b010 -
b0111 M
b0111 P
b0110 V
b0110 W
b0011 8
b00000000000000000000000000000101 X
b00000000000000000000000000000110 Y
1;
b011 <
#46
b00000000000000000000000000001000 3
b00000000000000000000000000000111 4
b00000000000000000000000000001000 (
b00000000000000000000000000000111 )
0;
#51
0@
b0010 E
b0100 F
b1000 G
b1000 H
b000 -
b1001 M
00
b1001 P
b0010 1
b00000000000000000000000000001000 Q
b00000000000000000000000000000111 R
1S
b1000 V
b1000 W
b0100 8
b00000000000000000000000000000111 Z
1;
b00000000000000000000000000001000 [
b001 <
0?
#56
06
0;
#61
b00000000000000000000000000000001 C
b0000000000000000000000000000000000000000000000000000000000000110 7
b001 :
1;
#66
0;
#71
b00000000000000000000000000000111 C
b0000000000000000000000000000000000000000000000000000000000001111 7
b010 :
1;
#76
0;
#81
b00000000000000000000000000010110 C
b0000000000000000000000000000000000000000000000000000000000011100 7
b011 :
1;
#86
0;
#91
b01 A
b00000000000000000000000000110010 C
b01 5
b0000000000000000000000000000000000000000000000000000000000000010 7
b000 :
1;
#96
0;
#101
b00000000000000000000000000000010 B
b0000000000000000000000000000000000000000000000000000000000001000 7
b001 :
1;
#106
0;
#111
b00000000000000000000000000001010 B
b0000000000000000000000000000000000000000000000000000000000010010 7
b010 :
1;
#116
0;
#121
b00000000000000000000000000011100 B
b0000000000000000000000000000000000000000000000000000000000100000 7
b011 :
1;
#126
0;
#131
b00 A
b00000000000000000000000000111100 B
b00 5
b0000000000000000000000000000000000000000000000000000000000000101 7
b000 :
b01 J
1;
#136
0;
#141
b0000000000000000000000000000000000000000000000000000000000010010 7
b001 :
1;
b00000000000000000000000000000101 >
#146
0;
#151
b0000000000000000000000000000000000000000000000000000000000100011 7
b010 :
1;
b00000000000000000000000000010111 >
#156
0;
#161
b0000000000000000000000000000000000000000000000000000000000111000 7
b011 :
1;
b00000000000000000000000000111010 >
#166
0;
#171
b01 A
b01 5
b0000000000000000000000000000000000000000000000000000000000001010 7
b000 :
1;
b00000000000000000000000001110010 >
#176
0;
#181
b0000000000000000000000000000000000000000000000000000000000011000 7
b001 :
1;
b00000000000000000000000000001010 =
#186
0;
#191
b0000000000000000000000000000000000000000000000000000000000101010 7
b010 :
1;
b00000000000000000000000000100010 =
#196
0;
#201
b0000000000000000000000000000000000000000000000000000000001000000 7
b011 :
1;
b00000000000000000000000001001100 =
#206
0;
#211
b00 A
12
0S
b00 5
b0000000000000000000000000000000000000000000000000000000000000101 7
19
b000 :
1;
b00000000000000000000000000110010 K
b00000000000000000000000010001100 =
1O
#216
0;
#221
b001 U
b001 I
b01 *
1;
b00000000000000000000000000111100 K
#226
0;
#231
b010 U
b010 I
b00 *
1;
b00000000000000000000000001110010 K
b001 L
#236
0;
#241
b011 U
b011 I
b01 *
1;
b00000000000000000000000010001100 K
#246
0;
#251
1@
b100 I
b00 *
b00000000000000000000000000000000 K
b010 L
0O
10
02
1T
b100 U
09
1;
#256
b00000000000000000000000000000000 3
b00000000000000000000000000000000 4
b00000000000000000000000000000000 (
b00000000000000000000000000000000 )
0;
