test_run_dir/MatMulMC_should_multiply_identity_x_1s_column_matrixvector/MatMulMC.vcd
$date
2024-03-01T20:57+0000
$end
$version
0.2
$end
$comment

$end
$timescale 1ns  $end
$scope module MatMulMC $end
 $var wire 32 ! matrixAInternal_0_0 $end
 $var wire 32 " matrixAInternal_0_1 $end
 $var wire 32 # matrixAInternal_0_2 $end
 $var wire 32 $ matrixAInternal_0_3 $end
 $var wire 32 % matrixBInternal_0_0 $end
 $var wire 32 & io_in_bits_bBlock_0 $end
 $var wire 32 ' matrixBInternal_2_0 $end
 $var wire 3 ( colAIdx $end
 $var wire 32 ) matrixBInternal_1_0 $end
 $var wire 1 * io_in_ready $end
 $var wire 5 + rowAIdx $end
 $var wire 1 , outputValid $end
 $var wire 32 - io_in_bits_aBlock_1 $end
 $var wire 32 . io_in_bits_aBlock_2 $end
 $var wire 32 / io_in_bits_aBlock_0 $end
 $var wire 32 0 io_in_bits_aBlock_3 $end
 $var wire 1 1 colCounter $end
 $var wire 1 2 io_in_valid $end
 $var wire 64 3 product $end
 $var wire 3 4 rowBIdx $end
 $var wire 32 5 resultMatrix_3_0 $end
 $var wire 1 6 stateOutputting $end
 $var wire 3 7 innerCounter $end
 $var wire 3 8 colAIdx_3 $end
 $var wire 1 9 clock $end
 $var wire 3 : colAIdx_2 $end
 $var wire 3 ; colAIdx_1 $end
 $var wire 32 < resultMatrix_2_0 $end
 $var wire 32 = resultMatrix_1_0 $end
 $var wire 1 > stateLoadMatrices $end
 $var wire 1 ? inputReady $end
 $var wire 1 @ colIdx $end
 $var wire 32 A resultMatrix_0_0 $end
 $var wire 5 B rowAIdx_1 $end
 $var wire 5 C rowAIdx_2 $end
 $var wire 5 D rowAIdx_3 $end
 $var wire 5 E loadCounterA $end
 $var wire 3 F loadCounterB $end
 $var wire 3 G loadCounterC $end
 $var wire 3 H rowCounter $end
 $var wire 32 I io_outBlock_bits_0 $end
 $var wire 3 J rowCIdx $end
 $var wire 5 K currIndA_3 $end
 $var wire 5 L currIndA_1 $end
 $var wire 5 M currIndA_2 $end
 $var wire 1 N reset $end
 $var wire 1 O io_outBlock_valid $end
 $var wire 32 P matrixAInternal_3_2 $end
 $var wire 32 Q matrixAInternal_3_3 $end
 $var wire 32 R matrixBInternal_3_0 $end
 $var wire 32 S matrixAInternal_3_0 $end
 $var wire 32 T matrixAInternal_3_1 $end
 $var wire 1 U stateMultiplying $end
 $var wire 32 V matrixAInternal_2_3 $end
 $var wire 1 W stateIdle $end
 $var wire 32 X matrixAInternal_2_0 $end
 $var wire 32 Y matrixAInternal_2_1 $end
 $var wire 32 Z matrixAInternal_2_2 $end
 $var wire 3 [ currIndC $end
 $var wire 3 \ currIndB $end
 $var wire 5 ] currIndA $end
 $var wire 32 ^ matrixAInternal_1_0 $end
 $var wire 32 _ matrixAInternal_1_1 $end
 $var wire 32 ` matrixAInternal_1_2 $end
 $var wire 32 a matrixAInternal_1_3 $end
$upscope $end
$enddefinitions $end
$dumpvars
01
02
b00000000000000000000000000000000 -
b00000000000000000000000000000000 '
b00000000000000000000000000000000 &
06
b00000000000000000000000000000000 )
b00000000000000000000000000000000 #
09
b00000000000000000000000000000000 "
b00000000000000000000000000000000 %
b00000000000000000000000000000000 $
0>
b00000000000000000000000000000000 !
0?
b0000000000000000000000000000000000000000000000000000000000000000 3
0@
b00000000000000000000000000000000 =
b00000000000000000000000000000000 <
b00000 +
b00000000000000000000000000000000 5
b00000000000000000000000000000000 /
b00000000000000000000000000000000 .
0N
0O
b00000000000000000000000000000000 0
0U
0W
b00000 C
b00000 B
b00000 E
b00000 D
b00000 K
b00000 M
b00000 L
b000 [
b000 \
b000 G
b000 F
b000 H
b00000 ]
b00000000000000000000000000000000 _
b000 J
b00000000000000000000000000000000 ^
b00000000000000000000000000000000 a
b00000000000000000000000000000000 `
b000 7
b000 8
b000 4
b000 ;
b000 :
b000 (
b00000000000000000000000000000000 I
b00000000000000000000000000000000 A
b00000000000000000000000000000000 Z
b00000000000000000000000000000000 V
b00000000000000000000000000000000 Y
b00000000000000000000000000000000 X
b00000000000000000000000000000000 S
b00000000000000000000000000000000 R
0*
b00000000000000000000000000000000 T
0,
b00000000000000000000000000000000 Q
b00000000000000000000000000000000 P
$end
#0
b011 8
b010 :
b001 ;
b00011 K
b00001 L
b00010 M
1N
#1
1W
19
1*
1?
#6
12
09
0N
#11
0W
19
1>
#16
b00000000000000000000000000000001 &
09
b00000000000000000000000000000001 /
#21
b00000000000000000000000000000001 !
b00001 B
b00001 C
b00001 D
b00000000000000000000000000000001 %
b00100 E
b001 F
b00001 +
b00111 K
b00101 L
b00110 M
b0000000000000000000000000000000000000000000000000000000000000001 3
b001 4
19
b001 \
b00100 ]
#26
09
b00000000000000000000000000000001 -
b00000000000000000000000000000000 /
#31
b00010 B
b00010 C
b00010 D
b01000 E
b010 F
b00000000000000000000000000000001 )
b00010 +
b01011 K
b01001 L
b01010 M
b010 4
19
b010 \
b01000 ]
b00000000000000000000000000000001 _
#36
09
b00000000000000000000000000000000 -
b00000000000000000000000000000001 .
#41
b00011 B
b00011 C
b00011 D
b01100 E
b011 F
b00000000000000000000000000000001 '
b00011 +
b01111 K
b01101 L
b01110 M
b011 4
19
b00000000000000000000000000000001 Z
b011 \
b01100 ]
#46
b00000000000000000000000000000001 0
09
b00000000000000000000000000000000 .
#51
b00100 B
b00100 C
b00100 D
b10000 E
b100 F
0*
b00100 +
b10011 K
b10001 L
b10010 M
b00000000000000000000000000000001 Q
b00000000000000000000000000000001 R
b100 4
1U
19
b100 \
b10000 ]
0>
0?
#56
02
09
#61
b00000000000000000000000000000001 A
b0000000000000000000000000000000000000000000000000000000000000000 3
b001 7
19
#66
09
#71
b010 7
19
#76
09
#81
b011 7
19
#86
09
#91
b000 7
b001 H
19
#96
09
#101
b0000000000000000000000000000000000000000000000000000000000000001 3
b001 7
19
#106
09
#111
b0000000000000000000000000000000000000000000000000000000000000000 3
b010 7
19
b00000000000000000000000000000001 =
#116
09
#121
b011 7
19
#126
09
#131
b000 7
b010 H
19
#136
09
#141
b001 7
19
#146
09
#151
b0000000000000000000000000000000000000000000000000000000000000001 3
b010 7
19
#156
09
#161
b0000000000000000000000000000000000000000000000000000000000000000 3
b011 7
19
b00000000000000000000000000000001 <
#166
09
#171
b000 7
b011 H
19
#176
09
#181
b001 7
19
#186
09
#191
b010 7
19
#196
09
#201
b0000000000000000000000000000000000000000000000000000000000000001 3
b011 7
19
#206
09
#211
b0000000000000000000000000000000000000000000000000000000000000000 3
b00000000000000000000000000000001 5
0U
16
b000 7
19
b00000000000000000000000000000001 I
1,
1O
#216
09
#221
b001 G
19
b001 J
b001 [
#226
09
#231
b010 G
19
b010 J
b010 [
#236
09
#241
b011 G
19
b011 J
b011 [
#246
09
#251
06
b100 G
1W
19
b00000000000000000000000000000000 I
1*
b100 J
b100 [
0,
1?
0O
#256
b00000000000000000000000000000000 0
b00000000000000000000000000000000 &
09
