test_run_dir/MatMulSC_should_multiply_in2x4_x_in4x2_full_parallelism/MatMulSC.vcd
$date
2024-03-01T20:58+0000
$end
$version
0.2
$end
$comment

$end
$timescale 1ns  $end
$scope module MatMulSC $end
 $var wire 32 ! bReg_3_0 $end
 $var wire 32 " bReg_3_1 $end
 $var wire 32 # io_out_bits_1_1 $end
 $var wire 32 $ io_out_bits_1_0 $end
 $var wire 32 % io_in_bits_a_1_0 $end
 $var wire 32 & io_in_bits_a_1_1 $end
 $var wire 32 ' io_in_bits_a_1_2 $end
 $var wire 32 ( io_in_bits_a_1_3 $end
 $var wire 32 ) aReg_0_0 $end
 $var wire 32 * bReg_2_1 $end
 $var wire 32 + bReg_2_0 $end
 $var wire 32 , aReg_0_2 $end
 $var wire 32 - aReg_0_1 $end
 $var wire 32 . aReg_0_3 $end
 $var wire 32 / io_out_bits_0_1 $end
 $var wire 32 0 io_out_bits_0_0 $end
 $var wire 2 1 colIndex_1 $end
 $var wire 3 2 kCounter $end
 $var wire 32 3 io_in_bits_b_0_1 $end
 $var wire 32 4 io_in_bits_b_0_0 $end
 $var wire 1 5 computeDone $end
 $var wire 32 6 bReg_1_1 $end
 $var wire 32 7 bReg_1_0 $end
 $var wire 2 8 rowCounter $end
 $var wire 32 9 bReg_0_1 $end
 $var wire 32 : bReg_0_0 $end
 $var wire 1 ; io_in_ready $end
 $var wire 32 < io_in_bits_a_0_0 $end
 $var wire 32 = io_in_bits_a_0_1 $end
 $var wire 32 > io_in_bits_a_0_2 $end
 $var wire 32 ? io_in_bits_a_0_3 $end
 $var wire 32 @ io_in_bits_b_2_1 $end
 $var wire 32 A io_in_bits_b_2_0 $end
 $var wire 1 B io_out_valid $end
 $var wire 1 C reset $end
 $var wire 2 D colCounter $end
 $var wire 1 E io_in_valid $end
 $var wire 32 F io_in_bits_b_1_1 $end
 $var wire 32 G io_in_bits_b_1_0 $end
 $var wire 2 H colIndex $end
 $var wire 64 I product $end
 $var wire 32 J cReg_1_0 $end
 $var wire 32 K cReg_1_1 $end
 $var wire 32 L aReg_1_1 $end
 $var wire 32 M aReg_1_0 $end
 $var wire 32 N aReg_1_3 $end
 $var wire 32 O aReg_1_2 $end
 $var wire 1 P clock $end
 $var wire 64 Q product_1 $end
 $var wire 32 R io_in_bits_b_3_0 $end
 $var wire 32 S cReg_0_1 $end
 $var wire 1 T computing $end
 $var wire 32 U io_in_bits_b_3_1 $end
 $var wire 32 V cReg_0_0 $end
$upscope $end
$enddefinitions $end
$dumpvars
b00000000000000000000000000000000 +
b00 8
b00000000000000000000000000000000 *
b00000000000000000000000000000000 -
b00000000000000000000000000000000 ,
b00000000000000000000000000000000 '
05
b00000000000000000000000000000000 &
b00000000000000000000000000000000 )
b00000000000000000000000000000000 (
b00 1
b00000000000000000000000000000000 #
b00000000000000000000000000000000 "
b00000000000000000000000000000000 %
0;
b00000000000000000000000000000000 $
b00000000000000000000000000000000 !
b00000000000000000000000000000000 :
0B
b00000000000000000000000000000000 =
0C
b00000000000000000000000000000000 <
b00000000000000000000000000000000 7
0E
b00000000000000000000000000000000 6
b00000000000000000000000000000000 9
b00000000000000000000000000000000 3
b00000000000000000000000000000000 4
b00000000000000000000000000000000 /
b00000000000000000000000000000000 .
b00000000000000000000000000000000 0
0P
0T
b000 2
b00000000000000000000000000000000 K
b00000000000000000000000000000000 J
b00000000000000000000000000000000 M
b00000000000000000000000000000000 L
b00000000000000000000000000000000 G
b00000000000000000000000000000000 F
b0000000000000000000000000000000000000000000000000000000000000000 Q
b00000000000000000000000000000000 ?
b00000000000000000000000000000000 >
b00000000000000000000000000000000 A
b00000000000000000000000000000000 @
b00 H
b0000000000000000000000000000000000000000000000000000000000000000 I
b00000000000000000000000000000000 V
b00000000000000000000000000000000 S
b00000000000000000000000000000000 R
b00000000000000000000000000000000 U
b00000000000000000000000000000000 O
b00 D
b00000000000000000000000000000000 N
$end
#0
b01 1
1C
1;
#1
1P
#6
b00000000000000000000000000000110 @
b00000000000000000000000000000101 A
0C
b00000000000000000000000000000101 %
1E
b00000000000000000000000000000110 &
b00000000000000000000000000000100 F
b00000000000000000000000000000111 '
b00000000000000000000000000000011 G
b00000000000000000000000000001000 (
0P
b00000000000000000000000000000111 R
b00000000000000000000000000000010 3
b00000000000000000000000000000001 4
b00000000000000000000000000001000 U
b00000000000000000000000000000001 <
b00000000000000000000000000000010 =
b00000000000000000000000000000011 >
b00000000000000000000000000000100 ?
#11
b00000000000000000000000000000111 !
b00000000000000000000000000001000 "
b00000000000000000000000000000001 )
b0000000000000000000000000000000000000000000000000000000000000001 I
b00000000000000000000000000000110 *
b00000000000000000000000000000101 +
b00000000000000000000000000000011 ,
b00000000000000000000000000000110 L
b00000000000000000000000000000010 -
b00000000000000000000000000000101 M
b00000000000000000000000000000100 .
b00000000000000000000000000001000 N
b00000000000000000000000000000111 O
1P
b0000000000000000000000000000000000000000000000000000000000000010 Q
1T
b00000000000000000000000000000100 6
b00000000000000000000000000000011 7
b00000000000000000000000000000010 9
b00000000000000000000000000000001 :
0;
#16
0P
#21
b00000000000000000000000000000001 0
1P
b0000000000000000000000000000000000000000000000000000000000001000 Q
b001 2
b00000000000000000000000000000010 S
b00000000000000000000000000000001 V
b0000000000000000000000000000000000000000000000000000000000000110 I
b00000000000000000000000000000010 /
#26
0P
#31
b00000000000000000000000000000111 0
1P
b0000000000000000000000000000000000000000000000000000000000010010 Q
b010 2
b00000000000000000000000000001010 S
b00000000000000000000000000000111 V
b0000000000000000000000000000000000000000000000000000000000001111 I
b00000000000000000000000000001010 /
#36
0P
#41
b00000000000000000000000000010110 0
1P
b0000000000000000000000000000000000000000000000000000000000100000 Q
b011 2
b00000000000000000000000000011100 S
b00000000000000000000000000010110 V
b0000000000000000000000000000000000000000000000000000000000011100 I
b00000000000000000000000000011100 /
#46
0P
#51
b00000000000000000000000000110010 0
1P
b0000000000000000000000000000000000000000000000000000000000001010 Q
b000 2
b00000000000000000000000000111100 S
b00000000000000000000000000110010 V
b01 8
b0000000000000000000000000000000000000000000000000000000000000101 I
b00000000000000000000000000111100 /
#56
0P
#61
1P
b0000000000000000000000000000000000000000000000000000000000011000 Q
b001 2
b00000000000000000000000000001010 #
b00000000000000000000000000000101 $
b0000000000000000000000000000000000000000000000000000000000010010 I
b00000000000000000000000000000101 J
b00000000000000000000000000001010 K
#66
0P
#71
1P
b0000000000000000000000000000000000000000000000000000000000101010 Q
b010 2
b00000000000000000000000000100010 #
b00000000000000000000000000010111 $
b0000000000000000000000000000000000000000000000000000000000100011 I
b00000000000000000000000000010111 J
b00000000000000000000000000100010 K
#76
0P
#81
1P
b0000000000000000000000000000000000000000000000000000000001000000 Q
b011 2
b00000000000000000000000001001100 #
b00000000000000000000000000111010 $
b0000000000000000000000000000000000000000000000000000000000111000 I
b00000000000000000000000000111010 J
b00000000000000000000000001001100 K
#86
0P
#91
1B
b00000000000000000000000010001100 #
b00000000000000000000000001110010 $
b0000000000000000000000000000000000000000000000000000000000000101 I
b00000000000000000000000001110010 J
b00000000000000000000000010001100 K
1P
b0000000000000000000000000000000000000000000000000000000000001010 Q
b000 2
0T
15
1;
#96
b00000000000000000000000000000000 @
b00000000000000000000000000000000 A
b00000000000000000000000000000000 %
0E
b00000000000000000000000000000000 &
b00000000000000000000000000000000 F
b00000000000000000000000000000000 '
b00000000000000000000000000000000 G
b00000000000000000000000000000000 (
0P
b00000000000000000000000000000000 R
b00000000000000000000000000000000 3
b00000000000000000000000000000000 4
b00000000000000000000000000000000 U
b00000000000000000000000000000000 <
b00000000000000000000000000000000 =
b00000000000000000000000000000000 >
b00000000000000000000000000000000 ?
