test_run_dir/MatMulSC_should_multiply_identity_full_parallelism/MatMulSC.vcd
$date
2024-03-01T20:58+0000
$end
$version
0.2
$end
$comment

$end
$timescale 1ns  $end
$scope module MatMulSC $end
 $var wire 32 ! io_out_bits_1_2 $end
 $var wire 32 " io_out_bits_1_1 $end
 $var wire 32 # io_out_bits_1_3 $end
 $var wire 32 $ io_out_bits_1_0 $end
 $var wire 3 % kCounter $end
 $var wire 1 & computeDone $end
 $var wire 1 ' io_in_ready $end
 $var wire 32 ( aReg_3_1 $end
 $var wire 32 ) aReg_3_0 $end
 $var wire 32 * aReg_3_3 $end
 $var wire 32 + aReg_3_2 $end
 $var wire 32 , io_in_bits_b_1_2 $end
 $var wire 32 - io_in_bits_b_1_1 $end
 $var wire 32 . io_in_bits_b_1_0 $end
 $var wire 32 / io_in_bits_b_1_3 $end
 $var wire 64 0 product $end
 $var wire 32 1 aReg_1_1 $end
 $var wire 32 2 aReg_1_0 $end
 $var wire 32 3 aReg_1_3 $end
 $var wire 32 4 aReg_1_2 $end
 $var wire 32 5 io_out_bits_3_0 $end
 $var wire 32 6 io_out_bits_3_2 $end
 $var wire 32 7 io_out_bits_3_1 $end
 $var wire 32 8 io_in_bits_a_3_3 $end
 $var wire 32 9 io_in_bits_a_3_2 $end
 $var wire 1 : clock $end
 $var wire 64 ; product_2 $end
 $var wire 32 < io_out_bits_3_3 $end
 $var wire 64 = product_3 $end
 $var wire 64 > product_1 $end
 $var wire 32 ? io_in_bits_a_3_1 $end
 $var wire 32 @ io_in_bits_a_3_0 $end
 $var wire 32 A io_in_bits_b_3_0 $end
 $var wire 32 B io_in_bits_b_3_3 $end
 $var wire 32 C io_in_bits_b_3_2 $end
 $var wire 32 D io_in_bits_b_3_1 $end
 $var wire 32 E io_in_bits_a_1_0 $end
 $var wire 32 F io_in_bits_a_1_1 $end
 $var wire 32 G io_in_bits_a_1_2 $end
 $var wire 32 H io_in_bits_a_1_3 $end
 $var wire 32 I bReg_2_1 $end
 $var wire 32 J bReg_2_0 $end
 $var wire 32 K bReg_2_3 $end
 $var wire 32 L bReg_2_2 $end
 $var wire 3 M colIndex_3 $end
 $var wire 3 N colIndex_1 $end
 $var wire 3 O colIndex_2 $end
 $var wire 3 P rowCounter $end
 $var wire 32 Q bReg_0_3 $end
 $var wire 32 R bReg_0_2 $end
 $var wire 32 S bReg_0_1 $end
 $var wire 32 T bReg_0_0 $end
 $var wire 32 U cReg_3_0 $end
 $var wire 32 V cReg_3_1 $end
 $var wire 32 W cReg_3_2 $end
 $var wire 32 X cReg_3_3 $end
 $var wire 1 Y reset $end
 $var wire 32 Z cReg_1_0 $end
 $var wire 32 [ cReg_1_1 $end
 $var wire 32 \ cReg_1_2 $end
 $var wire 32 ] cReg_1_3 $end
 $var wire 32 ^ io_out_bits_0_3 $end
 $var wire 32 _ io_out_bits_0_2 $end
 $var wire 32 ` io_out_bits_0_1 $end
 $var wire 32 a io_out_bits_0_0 $end
 $var wire 32 b io_in_bits_b_2_1 $end
 $var wire 32 c io_in_bits_b_2_0 $end
 $var wire 1 d io_out_valid $end
 $var wire 32 e io_in_bits_b_2_3 $end
 $var wire 32 f io_in_bits_b_2_2 $end
 $var wire 3 g colCounter $end
 $var wire 1 h io_in_valid $end
 $var wire 32 i aReg_2_0 $end
 $var wire 32 j aReg_2_2 $end
 $var wire 32 k aReg_2_1 $end
 $var wire 32 l aReg_2_3 $end
 $var wire 32 m io_out_bits_2_1 $end
 $var wire 32 n io_out_bits_2_0 $end
 $var wire 32 o io_out_bits_2_3 $end
 $var wire 32 p io_out_bits_2_2 $end
 $var wire 32 q bReg_3_0 $end
 $var wire 32 r bReg_3_3 $end
 $var wire 32 s bReg_3_2 $end
 $var wire 32 t bReg_3_1 $end
 $var wire 32 u aReg_0_0 $end
 $var wire 32 v aReg_0_2 $end
 $var wire 32 w aReg_0_1 $end
 $var wire 32 x aReg_0_3 $end
 $var wire 32 y io_in_bits_a_2_3 $end
 $var wire 32 z io_in_bits_a_2_0 $end
 $var wire 32 { io_in_bits_a_2_1 $end
 $var wire 32 | io_in_bits_a_2_2 $end
 $var wire 32 } io_in_bits_b_0_3 $end
 $var wire 32 ~ io_in_bits_b_0_2 $end
 $var wire 32 "! io_in_bits_b_0_1 $end
 $var wire 32 "" io_in_bits_b_0_0 $end
 $var wire 32 "# bReg_1_2 $end
 $var wire 32 "$ bReg_1_1 $end
 $var wire 32 "% bReg_1_0 $end
 $var wire 32 "& bReg_1_3 $end
 $var wire 32 "' io_in_bits_a_0_0 $end
 $var wire 32 "( io_in_bits_a_0_1 $end
 $var wire 32 ") io_in_bits_a_0_2 $end
 $var wire 32 "* io_in_bits_a_0_3 $end
 $var wire 32 "+ cReg_2_0 $end
 $var wire 32 ", cReg_2_1 $end
 $var wire 32 "- cReg_2_2 $end
 $var wire 3 ". colIndex $end
 $var wire 32 "/ cReg_2_3 $end
 $var wire 32 "0 cReg_0_1 $end
 $var wire 32 "1 cReg_0_2 $end
 $var wire 1 "2 computing $end
 $var wire 32 "3 cReg_0_3 $end
 $var wire 32 "4 cReg_0_0 $end
$upscope $end
$enddefinitions $end
$dumpvars
b00000000000000000000000000000000 "/
b00000000000000000000000000000000 +
b00000000000000000000000000000000 *
b00000000000000000000000000000000 "-
b00000000000000000000000000000000 -
b00000000000000000000000000000000 ",
b00000000000000000000000000000000 ,
b00000000000000000000000000000000 "3
b00000000000000000000000000000000 "1
b00000000000000000000000000000000 )
b00000000000000000000000000000000 "0
b00000000000000000000000000000000 (
b00000000000000000000000000000000 "'
b00000000000000000000000000000000 #
b00000000000000000000000000000000 "&
b00000000000000000000000000000000 "
b00000000000000000000000000000000 "%
0:
b00000000000000000000000000000000 "$
b00000000000000000000000000000000 $
b00000000000000000000000000000000 "+
b00000000000000000000000000000000 "*
b00000000000000000000000000000000 ")
b00000000000000000000000000000000 !
b00000000000000000000000000000000 "(
b00000000000000000000000000000000 <
b00000000000000000000000000000000 7
b00000000000000000000000000000000 6
b00000000000000000000000000000000 9
b00000000000000000000000000000000 8
b00000000000000000000000000000000 3
b00000000000000000000000000000000 2
b00000000000000000000000000000000 5
b00000000000000000000000000000000 "4
b00000000000000000000000000000000 4
b00000000000000000000000000000000 /
b00000000000000000000000000000000 .
b00000000000000000000000000000000 1
0Y
0d
0h
b00000000000000000000000000000000 "#
b00000000000000000000000000000000 ""
b00000000000000000000000000000000 "!
b0000000000000000000000000000000000000000000000000000000000000000 >
0"2
b0000000000000000000000000000000000000000000000000000000000000000 =
b0000000000000000000000000000000000000000000000000000000000000000 ;
b0000000000000000000000000000000000000000000000000000000000000000 0
b000 g
b00000000000000000000000000000000 ~
b00000000000000000000000000000000 k
b00000000000000000000000000000000 j
b00000000000000000000000000000000 m
b00000000000000000000000000000000 l
b00000000000000000000000000000000 f
b00000000000000000000000000000000 i
b000 O
b00000000000000000000000000000000 c
b000 N
b00000000000000000000000000000000 b
b00000000000000000000000000000000 e
b000 P
b00000000000000000000000000000000 _
b00000000000000000000000000000000 ^
b000 M
b00000000000000000000000000000000 a
b00000000000000000000000000000000 `
b00000000000000000000000000000000 {
b00000000000000000000000000000000 z
b00000000000000000000000000000000 }
b00000000000000000000000000000000 |
b00000000000000000000000000000000 w
b00000000000000000000000000000000 v
b00000000000000000000000000000000 y
b00000000000000000000000000000000 x
b000 ".
b00000000000000000000000000000000 s
b00000000000000000000000000000000 r
b00000000000000000000000000000000 u
b00000000000000000000000000000000 t
b00000000000000000000000000000000 o
b00000000000000000000000000000000 n
b00000000000000000000000000000000 q
b00000000000000000000000000000000 p
b00000000000000000000000000000000 K
b00000000000000000000000000000000 J
b00000000000000000000000000000000 L
b00000000000000000000000000000000 G
b00000000000000000000000000000000 F
b000 %
b00000000000000000000000000000000 I
b00000000000000000000000000000000 H
b00000000000000000000000000000000 C
b00000000000000000000000000000000 B
b00000000000000000000000000000000 E
b00000000000000000000000000000000 D
b00000000000000000000000000000000 ?
b00000000000000000000000000000000 A
b00000000000000000000000000000000 @
b00000000000000000000000000000000 [
b00000000000000000000000000000000 Z
b00000000000000000000000000000000 ]
b00000000000000000000000000000000 \
b00000000000000000000000000000000 W
b00000000000000000000000000000000 V
0&
0'
b00000000000000000000000000000000 X
b00000000000000000000000000000000 S
b00000000000000000000000000000000 R
b00000000000000000000000000000000 U
b00000000000000000000000000000000 T
b00000000000000000000000000000000 Q
$end
#0
1'
1Y
b011 M
b001 N
b010 O
#1
1:
#6
b00000000000000000000000000000001 ""
b00000000000000000000000000000001 B
b00000000000000000000000000000001 "'
b00000000000000000000000000000001 F
b00000000000000000000000000000001 f
b00000000000000000000000000000001 8
1h
0Y
0:
b00000000000000000000000000000001 |
b00000000000000000000000000000001 -
#11
b00000000000000000000000000000001 "$
0'
b00000000000000000000000000000001 *
b00000000000000000000000000000001 j
b00000000000000000000000000000001 L
b0000000000000000000000000000000000000000000000000000000000000001 0
1"2
b00000000000000000000000000000001 1
b00000000000000000000000000000001 r
b00000000000000000000000000000001 T
b00000000000000000000000000000001 u
1:
#16
0:
#21
b0000000000000000000000000000000000000000000000000000000000000000 0
b00000000000000000000000000000001 a
b00000000000000000000000000000001 "4
b001 %
1:
#26
0:
#31
b010 %
1:
#36
0:
#41
b011 %
1:
#46
0:
#51
b001 P
b000 %
1:
#56
0:
#61
b001 %
1:
b0000000000000000000000000000000000000000000000000000000000000001 >
#66
0:
#71
b00000000000000000000000000000001 "
b010 %
1:
b00000000000000000000000000000001 [
b0000000000000000000000000000000000000000000000000000000000000000 >
#76
0:
#81
b011 %
1:
#86
0:
#91
b010 P
b000 %
1:
#96
0:
#101
b001 %
1:
#106
0:
#111
b010 %
1:
b0000000000000000000000000000000000000000000000000000000000000001 ;
#116
0:
#121
b00000000000000000000000000000001 p
b011 %
1:
b0000000000000000000000000000000000000000000000000000000000000000 ;
b00000000000000000000000000000001 "-
#126
0:
#131
b011 P
b000 %
1:
#136
0:
#141
b001 %
1:
#146
0:
#151
b010 %
1:
#156
0:
#161
b011 %
1:
b0000000000000000000000000000000000000000000000000000000000000001 =
#166
0:
#171
0"2
1d
b000 %
1&
1'
b00000000000000000000000000000001 X
1:
b00000000000000000000000000000001 <
b0000000000000000000000000000000000000000000000000000000000000000 =
#176
b00000000000000000000000000000000 ""
b00000000000000000000000000000000 B
b00000000000000000000000000000000 "'
b00000000000000000000000000000000 F
b00000000000000000000000000000000 f
b00000000000000000000000000000000 8
0h
0:
b00000000000000000000000000000000 |
b00000000000000000000000000000000 -
