test_run_dir/MatMulMC_should_multiply_in4x2_x_in2x4_full_parallelism_half_transfers/MatMulMC.vcd
$date
2024-03-01T20:58+0000
$end
$version
0.2
$end
$comment

$end
$timescale 1ns  $end
$scope module MatMulMC $end
 $var wire 3 ! colBIdx $end
 $var wire 32 " matrixAInternal_0_0 $end
 $var wire 32 # matrixBInternal_0_3 $end
 $var wire 32 $ matrixAInternal_0_1 $end
 $var wire 32 % matrixBInternal_0_2 $end
 $var wire 32 & matrixBInternal_0_1 $end
 $var wire 32 ' matrixBInternal_0_0 $end
 $var wire 1 ( io_in_ready $end
 $var wire 1 ) outputValid $end
 $var wire 32 * io_in_bits_aBlock_0 $end
 $var wire 64 + product $end
 $var wire 4 , rowBIdx $end
 $var wire 1 - stateOutputting $end
 $var wire 1 . clock $end
 $var wire 64 / product_2 $end
 $var wire 5 0 rowCIdx_1 $end
 $var wire 64 1 product_3 $end
 $var wire 64 2 product_1 $end
 $var wire 32 3 resultMatrix_2_1 $end
 $var wire 32 4 resultMatrix_2_0 $end
 $var wire 32 5 resultMatrix_2_3 $end
 $var wire 32 6 resultMatrix_2_2 $end
 $var wire 1 7 stateLoadMatrices $end
 $var wire 3 8 colIdx $end
 $var wire 32 9 resultMatrix_0_3 $end
 $var wire 32 : resultMatrix_0_2 $end
 $var wire 32 ; resultMatrix_0_1 $end
 $var wire 32 < resultMatrix_0_0 $end
 $var wire 4 = loadCounterA $end
 $var wire 4 > loadCounterB $end
 $var wire 5 ? loadCounterC $end
 $var wire 3 @ rowCounter $end
 $var wire 5 A rowCIdx $end
 $var wire 3 B colCIdx_1 $end
 $var wire 1 C reset $end
 $var wire 1 D io_outBlock_valid $end
 $var wire 32 E matrixAInternal_3_0 $end
 $var wire 32 F matrixAInternal_3_1 $end
 $var wire 1 G stateIdle $end
 $var wire 32 H matrixAInternal_1_0 $end
 $var wire 32 I matrixAInternal_1_1 $end
 $var wire 32 J io_in_bits_bBlock_0 $end
 $var wire 3 K colCIdx $end
 $var wire 5 L currIndC_1 $end
 $var wire 2 M colAIdx $end
 $var wire 32 N matrixBInternal_1_3 $end
 $var wire 32 O matrixBInternal_1_2 $end
 $var wire 32 P matrixBInternal_1_1 $end
 $var wire 32 Q matrixBInternal_1_0 $end
 $var wire 4 R rowAIdx $end
 $var wire 3 S colCounter $end
 $var wire 1 T io_in_valid $end
 $var wire 32 U resultMatrix_3_0 $end
 $var wire 2 V innerCounter $end
 $var wire 32 W resultMatrix_3_3 $end
 $var wire 32 X resultMatrix_3_2 $end
 $var wire 32 Y resultMatrix_3_1 $end
 $var wire 3 Z colIdx_1 $end
 $var wire 3 [ colIdx_3 $end
 $var wire 3 \ colIdx_2 $end
 $var wire 32 ] resultMatrix_1_2 $end
 $var wire 32 ^ resultMatrix_1_1 $end
 $var wire 32 _ resultMatrix_1_0 $end
 $var wire 32 ` resultMatrix_1_3 $end
 $var wire 1 a inputReady $end
 $var wire 32 b io_outBlock_bits_1 $end
 $var wire 32 c io_outBlock_bits_0 $end
 $var wire 1 d stateMultiplying $end
 $var wire 32 e matrixAInternal_2_0 $end
 $var wire 32 f matrixAInternal_2_1 $end
 $var wire 5 g currIndC $end
 $var wire 4 h currIndB $end
 $var wire 4 i currIndA $end
$upscope $end
$enddefinitions $end
$dumpvars
b00000000000000000000000000000000 *
b00000000000000000000000000000000 '
b00000000000000000000000000000000 &
07
b00000000000000000000000000000000 #
b0000000000000000000000000000000000000000000000000000000000000000 1
b00000000000000000000000000000000 "
b00000000000000000000000000000000 %
b0000000000000000000000000000000000000000000000000000000000000000 /
b00000000000000000000000000000000 $
b0000000000000000000000000000000000000000000000000000000000000000 2
b00000000000000000000000000000000 ;
b00000000000000000000000000000000 :
0C
b00000000000000000000000000000000 <
0D
b00000000000000000000000000000000 6
b00000000000000000000000000000000 9
0G
b0000000000000000000000000000000000000000000000000000000000000000 +
b00000000000000000000000000000000 3
b00000000000000000000000000000000 5
b00000000000000000000000000000000 4
b00000 0
0T
b0000 ,
b00000 ?
b00000 A
0a
b000 S
0d
b0000 =
b00000 L
b000 [
b000 Z
b000 \
b000 B
b00000000000000000000000000000000 f
b0000 >
b00000000000000000000000000000000 c
b00000000000000000000000000000000 b
b00000000000000000000000000000000 e
b000 K
b00000000000000000000000000000000 _
b00000000000000000000000000000000 ^
b00000000000000000000000000000000 `
b0000 R
b000 8
b00000 g
b000 @
b00000000000000000000000000000000 J
b00 V
b00000000000000000000000000000000 F
b00000000000000000000000000000000 I
b00000000000000000000000000000000 H
b00000000000000000000000000000000 E
b0000 h
b0000 i
b00000000000000000000000000000000 ]
b00 M
b00000000000000000000000000000000 W
b00000000000000000000000000000000 Y
b00000000000000000000000000000000 X
0(
0)
b000 !
b00000000000000000000000000000000 U
b00000000000000000000000000000000 O
0-
b00000000000000000000000000000000 N
0.
b00000000000000000000000000000000 Q
b00000000000000000000000000000000 P
$end
#0
b001 B
1C
b001 Z
b011 [
b00001 L
b010 \
#1
1a
1G
1(
1.
#6
0C
1T
0.
#11
17
0G
1.
#16
b00000000000000000000000000000001 *
b00000000000000000000000000000001 J
0.
#21
b001 !
b00000000000000000000000000000001 "
b00000000000000000000000000000001 '
b0001 h
b0001 i
b0000000000000000000000000000000000000000000000000000000000000001 +
b0001 =
b01 M
1.
b0001 >
#26
b00000000000000000000000000000010 *
b00000000000000000000000000000010 J
0.
#31
b010 !
b0000000000000000000000000000000000000000000000000000000000000010 2
b0001 R
b00000000000000000000000000000010 $
b00000000000000000000000000000010 &
b0010 h
b0010 i
b0010 =
b00 M
1.
b0010 >
#36
b00000000000000000000000000000011 *
b00000000000000000000000000000011 J
0.
#41
b011 !
b00000000000000000000000000000011 %
b00000000000000000000000000000011 H
b0011 h
b0011 i
b0011 =
b01 M
1.
b0011 >
b0000000000000000000000000000000000000000000000000000000000000011 /
#46
b00000000000000000000000000000100 *
b00000000000000000000000000000100 J
0.
#51
b000 !
b00000000000000000000000000000100 #
b0100 h
b00000000000000000000000000000100 I
b0100 i
b0001 ,
b00 M
1.
b0000000000000000000000000000000000000000000000000000000000000100 1
b0010 R
b0100 =
b0100 >
#56
b00000000000000000000000000000101 *
b00000000000000000000000000000101 J
0.
#61
b001 !
b00000000000000000000000000000101 Q
b00000000000000000000000000000101 e
b0101 h
b0101 i
b0101 =
b01 M
1.
b0101 >
#66
b00000000000000000000000000000110 *
b00000000000000000000000000000110 J
0.
#71
b00000000000000000000000000000110 P
b010 !
b0011 R
b00000000000000000000000000000110 f
b0110 h
b0110 i
b0110 =
b00 M
1.
b0110 >
#76
b00000000000000000000000000000111 *
b00000000000000000000000000000111 J
0.
#81
b011 !
b00000000000000000000000000000111 E
b0111 h
b0111 i
b0111 =
b01 M
1.
b0111 >
b00000000000000000000000000000111 O
#86
b00000000000000000000000000001000 *
b00000000000000000000000000001000 J
0.
#91
b000 !
0a
1d
b00000000000000000000000000001000 F
0(
b1000 h
b1000 i
b0010 ,
b00 M
1.
b00000000000000000000000000001000 N
b0100 R
07
b1000 =
b1000 >
#96
0T
0.
#101
b0000000000000000000000000000000000000000000000000000000000010000 1
b0000000000000000000000000000000000000000000000000000000000001100 2
b01 V
b00000000000000000000000000000100 9
b00000000000000000000000000000011 :
b0000000000000000000000000000000000000000000000000000000000001010 +
b00000000000000000000000000000010 ;
b00000000000000000000000000000001 <
1.
b0000000000000000000000000000000000000000000000000000000000001110 /
#106
0.
#111
b001 @
b0000000000000000000000000000000000000000000000000000000000001100 1
b0000000000000000000000000000000000000000000000000000000000000110 2
b00 V
b00000000000000000000000000010100 9
b00000000000000000000000000010001 :
b0000000000000000000000000000000000000000000000000000000000000011 +
b00000000000000000000000000001110 ;
b00000000000000000000000000001011 <
1.
b0000000000000000000000000000000000000000000000000000000000001001 /
#116
0.
#121
b00000000000000000000000000001100 `
b0000000000000000000000000000000000000000000000000000000000100000 1
b0000000000000000000000000000000000000000000000000000000000011000 2
b01 V
b0000000000000000000000000000000000000000000000000000000000010100 +
b00000000000000000000000000001001 ]
1.
b00000000000000000000000000000110 ^
b0000000000000000000000000000000000000000000000000000000000011100 /
b00000000000000000000000000000011 _
#126
0.
#131
b010 @
b00000000000000000000000000101100 `
b0000000000000000000000000000000000000000000000000000000000010100 1
b0000000000000000000000000000000000000000000000000000000000001010 2
b00 V
b0000000000000000000000000000000000000000000000000000000000000101 +
b00000000000000000000000000100101 ]
1.
b00000000000000000000000000011110 ^
b0000000000000000000000000000000000000000000000000000000000001111 /
b00000000000000000000000000010111 _
#136
0.
#141
b0000000000000000000000000000000000000000000000000000000000110000 1
b0000000000000000000000000000000000000000000000000000000000100100 2
b00000000000000000000000000001010 3
b00000000000000000000000000000101 4
b00000000000000000000000000010100 5
b00000000000000000000000000001111 6
b01 V
b0000000000000000000000000000000000000000000000000000000000011110 +
1.
b0000000000000000000000000000000000000000000000000000000000101010 /
#146
0.
#151
b011 @
b0000000000000000000000000000000000000000000000000000000000011100 1
b0000000000000000000000000000000000000000000000000000000000001110 2
b00000000000000000000000000101110 3
b00000000000000000000000000100011 4
b00000000000000000000000001000100 5
b00000000000000000000000000111001 6
b00 V
b0000000000000000000000000000000000000000000000000000000000000111 +
1.
b0000000000000000000000000000000000000000000000000000000000010101 /
#156
0.
#161
b0000000000000000000000000000000000000000000000000000000001000000 1
b0000000000000000000000000000000000000000000000000000000000110000 2
b00000000000000000000000000000111 U
b01 V
b00000000000000000000000000011100 W
b00000000000000000000000000010101 X
b00000000000000000000000000001110 Y
b0000000000000000000000000000000000000000000000000000000000101000 +
1.
b0000000000000000000000000000000000000000000000000000000000111000 /
#166
0.
#171
b00000000000000000000000000001110 b
b00000000000000000000000000001011 c
1D
0d
1)
b0000000000000000000000000000000000000000000000000000000000000111 +
1-
1.
b0000000000000000000000000000000000000000000000000000000000010101 /
b0000000000000000000000000000000000000000000000000000000000011100 1
b0000000000000000000000000000000000000000000000000000000000001110 2
b00000000000000000000000000101111 U
b00 V
b00000000000000000000000001011100 W
b00000000000000000000000001001101 X
b00000000000000000000000000111110 Y
#176
0.
#181
b011 B
b00000000000000000000000000010100 b
b00000000000000000000000000010001 c
b00010 g
b010 K
b00011 L
1.
b00010 ?
#186
0.
#191
b00001 0
b00001 A
b001 B
b00000000000000000000000000011110 b
b00000000000000000000000000010111 c
b00100 g
b000 K
b00101 L
1.
b00100 ?
#196
0.
#201
b011 B
b00000000000000000000000000101100 b
b00000000000000000000000000100101 c
b00110 g
b010 K
b00111 L
1.
b00110 ?
#206
0.
#211
b00010 0
b00010 A
b001 B
b00000000000000000000000000101110 b
b00000000000000000000000000100011 c
b01000 g
b000 K
b01001 L
1.
b01000 ?
#216
0.
#221
b011 B
b00000000000000000000000001000100 b
b00000000000000000000000000111001 c
b01010 g
b010 K
b01011 L
1.
b01010 ?
#226
0.
#231
b00011 0
b00011 A
b001 B
b00000000000000000000000000111110 b
b00000000000000000000000000101111 c
b01100 g
b000 K
b01101 L
1.
b01100 ?
#236
0.
#241
b011 B
b00000000000000000000000001011100 b
b00000000000000000000000001001101 c
b01110 g
b010 K
b01111 L
1.
b01110 ?
#246
0.
#251
b00100 A
1a
b001 B
b00000000000000000000000000000000 b
b00000000000000000000000000000000 c
0D
1G
b10000 g
1(
0)
b000 K
b10001 L
0-
1.
b00100 0
b10000 ?
#256
b00000000000000000000000000000000 *
b00000000000000000000000000000000 J
0.
