test_run_dir/MatMulSC_should_multiply_identity_no_parallelism/MatMulSC.vcd
$date
2024-03-01T20:57+0000
$end
$version
0.2
$end
$comment

$end
$timescale 1ns  $end
$scope module MatMulSC $end
 $var wire 32 ! io_out_bits_1_2 $end
 $var wire 32 " io_out_bits_1_1 $end
 $var wire 32 # io_out_bits_1_3 $end
 $var wire 32 $ io_out_bits_1_0 $end
 $var wire 32 % io_out_bits_0_3 $end
 $var wire 32 & io_out_bits_0_2 $end
 $var wire 32 ' io_out_bits_0_1 $end
 $var wire 32 ( io_out_bits_0_0 $end
 $var wire 3 ) kCounter $end
 $var wire 1 * computeDone $end
 $var wire 1 + io_in_ready $end
 $var wire 32 , io_in_bits_b_2_1 $end
 $var wire 32 - io_in_bits_b_2_0 $end
 $var wire 1 . io_out_valid $end
 $var wire 32 / io_in_bits_b_2_3 $end
 $var wire 32 0 io_in_bits_b_2_2 $end
 $var wire 32 1 aReg_3_1 $end
 $var wire 32 2 aReg_3_0 $end
 $var wire 32 3 aReg_3_3 $end
 $var wire 32 4 aReg_3_2 $end
 $var wire 3 5 colCounter $end
 $var wire 1 6 io_in_valid $end
 $var wire 32 7 io_in_bits_b_1_2 $end
 $var wire 32 8 io_in_bits_b_1_1 $end
 $var wire 32 9 io_in_bits_b_1_0 $end
 $var wire 32 : io_in_bits_b_1_3 $end
 $var wire 64 ; product $end
 $var wire 32 < aReg_1_1 $end
 $var wire 32 = aReg_1_0 $end
 $var wire 32 > aReg_1_3 $end
 $var wire 32 ? aReg_1_2 $end
 $var wire 32 @ io_out_bits_3_0 $end
 $var wire 32 A io_out_bits_3_2 $end
 $var wire 32 B io_out_bits_3_1 $end
 $var wire 32 C io_in_bits_a_3_3 $end
 $var wire 32 D io_in_bits_a_3_2 $end
 $var wire 1 E clock $end
 $var wire 32 F io_out_bits_3_3 $end
 $var wire 32 G io_in_bits_a_3_1 $end
 $var wire 32 H io_in_bits_a_3_0 $end
 $var wire 32 I io_in_bits_b_3_0 $end
 $var wire 32 J io_in_bits_b_3_3 $end
 $var wire 32 K io_in_bits_b_3_2 $end
 $var wire 32 L aReg_2_0 $end
 $var wire 32 M io_in_bits_b_3_1 $end
 $var wire 32 N aReg_2_2 $end
 $var wire 32 O aReg_2_1 $end
 $var wire 32 P aReg_2_3 $end
 $var wire 32 Q io_out_bits_2_1 $end
 $var wire 32 R io_out_bits_2_0 $end
 $var wire 32 S io_out_bits_2_3 $end
 $var wire 32 T io_out_bits_2_2 $end
 $var wire 32 U bReg_3_0 $end
 $var wire 32 V bReg_3_3 $end
 $var wire 32 W bReg_3_2 $end
 $var wire 32 X bReg_3_1 $end
 $var wire 32 Y io_in_bits_a_1_0 $end
 $var wire 32 Z io_in_bits_a_1_1 $end
 $var wire 32 [ io_in_bits_a_1_2 $end
 $var wire 32 \ io_in_bits_a_1_3 $end
 $var wire 32 ] aReg_0_0 $end
 $var wire 32 ^ bReg_2_1 $end
 $var wire 32 _ bReg_2_0 $end
 $var wire 32 ` aReg_0_2 $end
 $var wire 32 a aReg_0_1 $end
 $var wire 32 b aReg_0_3 $end
 $var wire 32 c bReg_2_3 $end
 $var wire 32 d bReg_2_2 $end
 $var wire 32 e io_in_bits_a_2_3 $end
 $var wire 32 f io_in_bits_a_2_0 $end
 $var wire 32 g io_in_bits_a_2_1 $end
 $var wire 32 h io_in_bits_a_2_2 $end
 $var wire 32 i io_in_bits_b_0_3 $end
 $var wire 32 j io_in_bits_b_0_2 $end
 $var wire 32 k io_in_bits_b_0_1 $end
 $var wire 32 l io_in_bits_b_0_0 $end
 $var wire 32 m bReg_1_2 $end
 $var wire 32 n bReg_1_1 $end
 $var wire 32 o bReg_1_0 $end
 $var wire 32 p bReg_1_3 $end
 $var wire 3 q rowCounter $end
 $var wire 32 r bReg_0_3 $end
 $var wire 32 s bReg_0_2 $end
 $var wire 32 t bReg_0_1 $end
 $var wire 32 u bReg_0_0 $end
 $var wire 32 v io_in_bits_a_0_0 $end
 $var wire 32 w io_in_bits_a_0_1 $end
 $var wire 32 x io_in_bits_a_0_2 $end
 $var wire 32 y io_in_bits_a_0_3 $end
 $var wire 32 z cReg_3_0 $end
 $var wire 32 { cReg_3_1 $end
 $var wire 32 | cReg_3_2 $end
 $var wire 32 } cReg_3_3 $end
 $var wire 1 ~ reset $end
 $var wire 32 "! cReg_2_0 $end
 $var wire 32 "" cReg_2_1 $end
 $var wire 32 "# cReg_2_2 $end
 $var wire 3 "$ colIndex $end
 $var wire 32 "% cReg_2_3 $end
 $var wire 32 "& cReg_1_0 $end
 $var wire 32 "' cReg_1_1 $end
 $var wire 32 "( cReg_1_2 $end
 $var wire 32 ") cReg_1_3 $end
 $var wire 32 "* cReg_0_1 $end
 $var wire 32 "+ cReg_0_2 $end
 $var wire 1 ", computing $end
 $var wire 32 "- cReg_0_3 $end
 $var wire 32 ". cReg_0_0 $end
$upscope $end
$enddefinitions $end
$dumpvars
b00000000000000000000000000000000 ".
b00000000000000000000000000000000 "-
b00000000000000000000000000000000 -
b00000000000000000000000000000000 ,
b00000000000000000000000000000000 '
b00000000000000000000000000000000 &
06
b00000000000000000000000000000000 (
b00000000000000000000000000000000 "'
b00000000000000000000000000000000 #
b00000000000000000000000000000000 "&
b00000000000000000000000000000000 "
b00000000000000000000000000000000 "%
b00000000000000000000000000000000 %
b00000000000000000000000000000000 $
b00000000000000000000000000000000 "+
b00000000000000000000000000000000 "*
b00000000000000000000000000000000 ")
b00000000000000000000000000000000 !
b00000000000000000000000000000000 "(
b00000000000000000000000000000000 :
b00000000000000000000000000000000 =
b00000000000000000000000000000000 <
b00000000000000000000000000000000 7
0E
b00000000000000000000000000000000 9
b00000000000000000000000000000000 8
b00000000000000000000000000000000 3
b00000000000000000000000000000000 2
b00000000000000000000000000000000 4
b00000000000000000000000000000000 /
b00000000000000000000000000000000 1
b00000000000000000000000000000000 0
0~
b00000000000000000000000000000000 "#
b00000000000000000000000000000000 ""
b00000000000000000000000000000000 "!
0",
b0000000000000000000000000000000000000000000000000000000000000000 ;
b000 q
b00000000000000000000000000000000 k
b00000000000000000000000000000000 j
b00000000000000000000000000000000 m
b00000000000000000000000000000000 l
b00000000000000000000000000000000 g
b00000000000000000000000000000000 f
b00000000000000000000000000000000 i
b00000000000000000000000000000000 h
b00000000000000000000000000000000 c
b00000000000000000000000000000000 b
b00000000000000000000000000000000 e
b00000000000000000000000000000000 d
b00000000000000000000000000000000 _
b00000000000000000000000000000000 ^
b00000000000000000000000000000000 a
b00000000000000000000000000000000 `
b00000000000000000000000000000000 {
b00000000000000000000000000000000 z
b000 "$
b00000000000000000000000000000000 }
b00000000000000000000000000000000 |
b00000000000000000000000000000000 w
b00000000000000000000000000000000 v
b000 5
b00000000000000000000000000000000 y
b00000000000000000000000000000000 x
b00000000000000000000000000000000 s
b00000000000000000000000000000000 r
b00000000000000000000000000000000 u
b00000000000000000000000000000000 t
b00000000000000000000000000000000 o
b00000000000000000000000000000000 n
b00000000000000000000000000000000 p
b00000000000000000000000000000000 K
b00000000000000000000000000000000 J
b000 )
b00000000000000000000000000000000 M
b00000000000000000000000000000000 L
b00000000000000000000000000000000 G
b00000000000000000000000000000000 F
b00000000000000000000000000000000 I
b00000000000000000000000000000000 H
b00000000000000000000000000000000 C
b00000000000000000000000000000000 B
b00000000000000000000000000000000 D
b00000000000000000000000000000000 ?
b00000000000000000000000000000000 >
b00000000000000000000000000000000 A
b00000000000000000000000000000000 @
b00000000000000000000000000000000 [
b00000000000000000000000000000000 Z
b00000000000000000000000000000000 ]
b00000000000000000000000000000000 \
b00000000000000000000000000000000 W
b00000000000000000000000000000000 V
b00000000000000000000000000000000 Y
b00000000000000000000000000000000 X
b00000000000000000000000000000000 S
b00000000000000000000000000000000 R
0*
b00000000000000000000000000000000 U
0+
b00000000000000000000000000000000 T
b00000000000000000000000000000000 O
b00000000000000000000000000000000 N
0.
b00000000000000000000000000000000 Q
b00000000000000000000000000000000 P
$end
#0
1+
1~
#1
1E
#6
b00000000000000000000000000000001 0
b00000000000000000000000000000001 C
0E
16
b00000000000000000000000000000001 v
b00000000000000000000000000000001 8
b00000000000000000000000000000001 h
b00000000000000000000000000000001 J
b00000000000000000000000000000001 Z
b00000000000000000000000000000001 l
0~
#11
b00000000000000000000000000000001 d
1E
1",
0+
b00000000000000000000000000000001 N
b00000000000000000000000000000001 n
b00000000000000000000000000000001 3
b00000000000000000000000000000001 u
b00000000000000000000000000000001 V
b0000000000000000000000000000000000000000000000000000000000000001 ;
b00000000000000000000000000000001 <
b00000000000000000000000000000001 ]
#16
0E
#21
1E
b00000000000000000000000000000001 (
b001 )
b0000000000000000000000000000000000000000000000000000000000000000 ;
b00000000000000000000000000000001 ".
#26
0E
#31
1E
b010 )
#36
0E
#41
1E
b011 )
#46
0E
#51
b001 "$
b001 5
1E
b000 )
#56
0E
#61
1E
b001 )
#66
0E
#71
1E
b010 )
#76
0E
#81
1E
b011 )
#86
0E
#91
b010 "$
b010 5
1E
b000 )
#96
0E
#101
1E
b001 )
#106
0E
#111
1E
b010 )
#116
0E
#121
1E
b011 )
#126
0E
#131
b011 "$
b011 5
1E
b000 )
#136
0E
#141
1E
b001 )
#146
0E
#151
1E
b010 )
#156
0E
#161
1E
b011 )
#166
0E
#171
b001 q
b000 "$
b000 5
1E
b000 )
#176
0E
#181
1E
b001 )
#186
0E
#191
1E
b010 )
#196
0E
#201
1E
b011 )
#206
0E
#211
b001 "$
b001 5
1E
b000 )
#216
0E
#221
1E
b001 )
b0000000000000000000000000000000000000000000000000000000000000001 ;
#226
0E
#231
b00000000000000000000000000000001 "
1E
b00000000000000000000000000000001 "'
b010 )
b0000000000000000000000000000000000000000000000000000000000000000 ;
#236
0E
#241
1E
b011 )
#246
0E
#251
b010 "$
b010 5
1E
b000 )
#256
0E
#261
1E
b001 )
#266
0E
#271
1E
b010 )
#276
0E
#281
1E
b011 )
#286
0E
#291
b011 "$
b011 5
1E
b000 )
#296
0E
#301
1E
b001 )
#306
0E
#311
1E
b010 )
#316
0E
#321
1E
b011 )
#326
0E
#331
b010 q
b000 "$
b000 5
1E
b000 )
#336
0E
#341
1E
b001 )
#346
0E
#351
1E
b010 )
#356
0E
#361
1E
b011 )
#366
0E
#371
b001 "$
b001 5
1E
b000 )
#376
0E
#381
1E
b001 )
#386
0E
#391
1E
b010 )
#396
0E
#401
1E
b011 )
#406
0E
#411
b010 "$
b010 5
1E
b000 )
#416
0E
#421
1E
b001 )
#426
0E
#431
1E
b010 )
b0000000000000000000000000000000000000000000000000000000000000001 ;
#436
0E
#441
b00000000000000000000000000000001 "#
b00000000000000000000000000000001 T
1E
b011 )
b0000000000000000000000000000000000000000000000000000000000000000 ;
#446
0E
#451
b011 "$
b011 5
1E
b000 )
#456
0E
#461
1E
b001 )
#466
0E
#471
1E
b010 )
#476
0E
#481
1E
b011 )
#486
0E
#491
b011 q
b000 "$
b000 5
1E
b000 )
#496
0E
#501
1E
b001 )
#506
0E
#511
1E
b010 )
#516
0E
#521
1E
b011 )
#526
0E
#531
b001 "$
b001 5
1E
b000 )
#536
0E
#541
1E
b001 )
#546
0E
#551
1E
b010 )
#556
0E
#561
1E
b011 )
#566
0E
#571
b010 "$
b010 5
1E
b000 )
#576
0E
#581
1E
b001 )
#586
0E
#591
1E
b010 )
#596
0E
#601
1E
b011 )
#606
0E
#611
b011 "$
b011 5
1E
b000 )
#616
0E
#621
1E
b001 )
#626
0E
#631
1E
b010 )
#636
0E
#641
1E
b011 )
b0000000000000000000000000000000000000000000000000000000000000001 ;
#646
0E
#651
b000 "$
b000 5
1E
b00000000000000000000000000000001 F
b000 )
1*
0",
1+
b0000000000000000000000000000000000000000000000000000000000000000 ;
b00000000000000000000000000000001 }
1.
#656
b00000000000000000000000000000000 0
b00000000000000000000000000000000 C
0E
06
b00000000000000000000000000000000 v
b00000000000000000000000000000000 8
b00000000000000000000000000000000 h
b00000000000000000000000000000000 J
b00000000000000000000000000000000 Z
b00000000000000000000000000000000 l
