test_run_dir/MatMulSC_should_multiply_in2x4_x_in4x2_no_parallelism/MatMulSC.vcd
$date
2024-03-01T20:58+0000
$end
$version
0.2
$end
$comment

$end
$timescale 1ns  $end
$scope module MatMulSC $end
 $var wire 32 ! bReg_3_0 $end
 $var wire 32 " bReg_3_1 $end
 $var wire 32 # io_out_bits_1_1 $end
 $var wire 32 $ io_out_bits_1_0 $end
 $var wire 32 % io_in_bits_a_1_0 $end
 $var wire 32 & io_in_bits_a_1_1 $end
 $var wire 32 ' io_in_bits_a_1_2 $end
 $var wire 32 ( io_in_bits_a_1_3 $end
 $var wire 32 ) aReg_0_0 $end
 $var wire 32 * bReg_2_1 $end
 $var wire 32 + bReg_2_0 $end
 $var wire 32 , aReg_0_2 $end
 $var wire 32 - aReg_0_1 $end
 $var wire 32 . aReg_0_3 $end
 $var wire 32 / io_out_bits_0_1 $end
 $var wire 32 0 io_out_bits_0_0 $end
 $var wire 3 1 kCounter $end
 $var wire 32 2 io_in_bits_b_0_1 $end
 $var wire 32 3 io_in_bits_b_0_0 $end
 $var wire 1 4 computeDone $end
 $var wire 32 5 bReg_1_1 $end
 $var wire 32 6 bReg_1_0 $end
 $var wire 2 7 rowCounter $end
 $var wire 32 8 bReg_0_1 $end
 $var wire 32 9 bReg_0_0 $end
 $var wire 1 : io_in_ready $end
 $var wire 32 ; io_in_bits_a_0_0 $end
 $var wire 32 < io_in_bits_a_0_1 $end
 $var wire 32 = io_in_bits_a_0_2 $end
 $var wire 32 > io_in_bits_a_0_3 $end
 $var wire 32 ? io_in_bits_b_2_1 $end
 $var wire 32 @ io_in_bits_b_2_0 $end
 $var wire 1 A io_out_valid $end
 $var wire 1 B reset $end
 $var wire 2 C colCounter $end
 $var wire 1 D io_in_valid $end
 $var wire 32 E io_in_bits_b_1_1 $end
 $var wire 32 F io_in_bits_b_1_0 $end
 $var wire 2 G colIndex $end
 $var wire 64 H product $end
 $var wire 32 I cReg_1_0 $end
 $var wire 32 J cReg_1_1 $end
 $var wire 32 K aReg_1_1 $end
 $var wire 32 L aReg_1_0 $end
 $var wire 32 M aReg_1_3 $end
 $var wire 32 N aReg_1_2 $end
 $var wire 1 O clock $end
 $var wire 32 P io_in_bits_b_3_0 $end
 $var wire 32 Q cReg_0_1 $end
 $var wire 1 R computing $end
 $var wire 32 S io_in_bits_b_3_1 $end
 $var wire 32 T cReg_0_0 $end
$upscope $end
$enddefinitions $end
$dumpvars
b00000000000000000000000000000000 +
b00000000000000000000000000000000 *
b00 7
b00000000000000000000000000000000 -
b00000000000000000000000000000000 ,
04
b00000000000000000000000000000000 '
b00000000000000000000000000000000 &
b00000000000000000000000000000000 )
b00000000000000000000000000000000 (
b00000000000000000000000000000000 #
b00000000000000000000000000000000 "
0:
b00000000000000000000000000000000 %
b00000000000000000000000000000000 $
b00000000000000000000000000000000 !
b00000000000000000000000000000000 ;
0A
0B
b00000000000000000000000000000000 =
b00000000000000000000000000000000 <
0D
b00000000000000000000000000000000 6
b00000000000000000000000000000000 9
b00000000000000000000000000000000 8
b00000000000000000000000000000000 3
b00000000000000000000000000000000 2
b00000000000000000000000000000000 5
b00000000000000000000000000000000 /
b00000000000000000000000000000000 .
0O
b00000000000000000000000000000000 0
0R
b00000000000000000000000000000000 K
b00000000000000000000000000000000 J
b00000000000000000000000000000000 M
b00000000000000000000000000000000 L
b00000000000000000000000000000000 F
b00000000000000000000000000000000 I
b000 1
b00000000000000000000000000000000 E
b00000000000000000000000000000000 ?
b00000000000000000000000000000000 >
b00000000000000000000000000000000 @
b0000000000000000000000000000000000000000000000000000000000000000 H
b00 G
b00000000000000000000000000000000 S
b00000000000000000000000000000000 T
b00000000000000000000000000000000 N
b00 C
b00000000000000000000000000000000 Q
b00000000000000000000000000000000 P
$end
#0
1B
1:
#1
1O
#6
b00000000000000000000000000000101 @
0B
1D
b00000000000000000000000000000101 %
b00000000000000000000000000000100 E
b00000000000000000000000000000110 &
b00000000000000000000000000000011 F
b00000000000000000000000000000111 '
b00000000000000000000000000001000 (
0O
b00000000000000000000000000000111 P
b00000000000000000000000000000010 2
b00000000000000000000000000000001 3
b00000000000000000000000000001000 S
b00000000000000000000000000000001 ;
b00000000000000000000000000000010 <
b00000000000000000000000000000011 =
b00000000000000000000000000000100 >
b00000000000000000000000000000110 ?
#11
b00000000000000000000000000000111 !
b00000000000000000000000000001000 "
b0000000000000000000000000000000000000000000000000000000000000001 H
b00000000000000000000000000000001 )
b00000000000000000000000000000110 *
b00000000000000000000000000000101 +
b00000000000000000000000000000110 K
b00000000000000000000000000000011 ,
b00000000000000000000000000000101 L
b00000000000000000000000000000010 -
b00000000000000000000000000001000 M
b00000000000000000000000000000100 .
b00000000000000000000000000000111 N
1O
1R
b00000000000000000000000000000100 5
b00000000000000000000000000000011 6
b00000000000000000000000000000010 8
b00000000000000000000000000000001 9
0:
#16
0O
#21
b00000000000000000000000000000001 0
b001 1
b00000000000000000000000000000001 T
b0000000000000000000000000000000000000000000000000000000000000110 H
1O
#26
0O
#31
b00000000000000000000000000000111 0
b010 1
b00000000000000000000000000000111 T
b0000000000000000000000000000000000000000000000000000000000001111 H
1O
#36
0O
#41
b00000000000000000000000000010110 0
b011 1
b00000000000000000000000000010110 T
b0000000000000000000000000000000000000000000000000000000000011100 H
1O
#46
0O
#51
b00000000000000000000000000110010 0
b000 1
b01 C
b00000000000000000000000000110010 T
b01 G
b0000000000000000000000000000000000000000000000000000000000000010 H
1O
#56
0O
#61
b001 1
b00000000000000000000000000000010 Q
b0000000000000000000000000000000000000000000000000000000000001000 H
b00000000000000000000000000000010 /
1O
#66
0O
#71
b010 1
b00000000000000000000000000001010 Q
b0000000000000000000000000000000000000000000000000000000000010010 H
b00000000000000000000000000001010 /
1O
#76
0O
#81
b011 1
b00000000000000000000000000011100 Q
b0000000000000000000000000000000000000000000000000000000000100000 H
b00000000000000000000000000011100 /
1O
#86
0O
#91
b000 1
b00000000000000000000000000111100 Q
b00 C
b01 7
b00 G
b0000000000000000000000000000000000000000000000000000000000000101 H
b00000000000000000000000000111100 /
1O
#96
0O
#101
b001 1
b00000000000000000000000000000101 $
b0000000000000000000000000000000000000000000000000000000000010010 H
b00000000000000000000000000000101 I
1O
#106
0O
#111
b010 1
b00000000000000000000000000010111 $
b0000000000000000000000000000000000000000000000000000000000100011 H
b00000000000000000000000000010111 I
1O
#116
0O
#121
b011 1
b00000000000000000000000000111010 $
b0000000000000000000000000000000000000000000000000000000000111000 H
b00000000000000000000000000111010 I
1O
#126
0O
#131
b000 1
b01 C
b00000000000000000000000001110010 $
b01 G
b0000000000000000000000000000000000000000000000000000000000001010 H
b00000000000000000000000001110010 I
1O
#136
0O
#141
b001 1
b00000000000000000000000000001010 #
b0000000000000000000000000000000000000000000000000000000000011000 H
b00000000000000000000000000001010 J
1O
#146
0O
#151
b010 1
b00000000000000000000000000100010 #
b0000000000000000000000000000000000000000000000000000000000101010 H
b00000000000000000000000000100010 J
1O
#156
0O
#161
b011 1
b00000000000000000000000001001100 #
b0000000000000000000000000000000000000000000000000000000001000000 H
b00000000000000000000000001001100 J
1O
#166
0O
#171
b000 1
1A
0R
b00000000000000000000000010001100 #
b00 C
14
b00 G
b0000000000000000000000000000000000000000000000000000000000000101 H
1:
b00000000000000000000000010001100 J
1O
#176
b00000000000000000000000000000000 @
0D
b00000000000000000000000000000000 %
b00000000000000000000000000000000 E
b00000000000000000000000000000000 &
b00000000000000000000000000000000 F
b00000000000000000000000000000000 '
b00000000000000000000000000000000 (
0O
b00000000000000000000000000000000 P
b00000000000000000000000000000000 2
b00000000000000000000000000000000 3
b00000000000000000000000000000000 S
b00000000000000000000000000000000 ;
b00000000000000000000000000000000 <
b00000000000000000000000000000000 =
b00000000000000000000000000000000 >
b00000000000000000000000000000000 ?
