test_run_dir/MatMulMC_should_multiply_1s_column_x_1s_row/MatMulMC.vcd
$date
2024-03-01T20:57+0000
$end
$version
0.2
$end
$comment

$end
$timescale 1ns  $end
$scope module MatMulMC $end
 $var wire 3 ! colBIdx $end
 $var wire 32 " matrixAInternal_0_0 $end
 $var wire 32 # matrixBInternal_0_3 $end
 $var wire 32 $ matrixBInternal_0_2 $end
 $var wire 32 % matrixBInternal_0_1 $end
 $var wire 32 & matrixBInternal_0_0 $end
 $var wire 32 ' io_in_bits_bBlock_0 $end
 $var wire 3 ( colCIdx $end
 $var wire 5 ) currIndC_1 $end
 $var wire 5 * currIndC_2 $end
 $var wire 5 + currIndC_3 $end
 $var wire 1 , io_in_ready $end
 $var wire 3 - rowAIdx $end
 $var wire 1 . outputValid $end
 $var wire 32 / io_in_bits_aBlock_0 $end
 $var wire 3 0 colCounter $end
 $var wire 1 1 io_in_valid $end
 $var wire 64 2 product $end
 $var wire 32 3 resultMatrix_3_0 $end
 $var wire 1 4 stateOutputting $end
 $var wire 1 5 innerCounter $end
 $var wire 32 6 resultMatrix_3_3 $end
 $var wire 32 7 resultMatrix_3_2 $end
 $var wire 32 8 resultMatrix_3_1 $end
 $var wire 5 9 rowCIdx_3 $end
 $var wire 1 : clock $end
 $var wire 5 ; rowCIdx_1 $end
 $var wire 5 < rowCIdx_2 $end
 $var wire 32 = resultMatrix_2_1 $end
 $var wire 32 > resultMatrix_2_0 $end
 $var wire 32 ? resultMatrix_2_3 $end
 $var wire 32 @ resultMatrix_2_2 $end
 $var wire 32 A resultMatrix_1_2 $end
 $var wire 32 B resultMatrix_1_1 $end
 $var wire 32 C resultMatrix_1_0 $end
 $var wire 1 D stateLoadMatrices $end
 $var wire 32 E resultMatrix_1_3 $end
 $var wire 1 F inputReady $end
 $var wire 3 G colIdx $end
 $var wire 32 H resultMatrix_0_3 $end
 $var wire 32 I resultMatrix_0_2 $end
 $var wire 32 J resultMatrix_0_1 $end
 $var wire 32 K resultMatrix_0_0 $end
 $var wire 32 L io_outBlock_bits_3 $end
 $var wire 32 M io_outBlock_bits_2 $end
 $var wire 3 N loadCounterA $end
 $var wire 3 O loadCounterB $end
 $var wire 5 P loadCounterC $end
 $var wire 3 Q rowCounter $end
 $var wire 32 R io_outBlock_bits_1 $end
 $var wire 32 S io_outBlock_bits_0 $end
 $var wire 5 T rowCIdx $end
 $var wire 3 U colCIdx_3 $end
 $var wire 3 V colCIdx_2 $end
 $var wire 3 W colCIdx_1 $end
 $var wire 1 X reset $end
 $var wire 1 Y io_outBlock_valid $end
 $var wire 32 Z matrixAInternal_3_0 $end
 $var wire 1 [ stateMultiplying $end
 $var wire 1 \ stateIdle $end
 $var wire 32 ] matrixAInternal_2_0 $end
 $var wire 5 ^ currIndC $end
 $var wire 3 _ currIndB $end
 $var wire 3 ` currIndA $end
 $var wire 32 a matrixAInternal_1_0 $end
$upscope $end
$enddefinitions $end
$dumpvars
01
04
b00000000000000000000000000000000 '
05
b00000000000000000000000000000000 &
b00000000000000000000000000000000 #
b00000000000000000000000000000000 "
0:
b00000000000000000000000000000000 %
b00000000000000000000000000000000 $
b0000000000000000000000000000000000000000000000000000000000000000 2
b00000000000000000000000000000000 =
0D
b00000000000000000000000000000000 7
b00000000000000000000000000000000 6
0F
b00000 )
b00000000000000000000000000000000 8
b00000 +
b00000000000000000000000000000000 3
b00000 *
b00000000000000000000000000000000 /
b00000 9
0X
b00000 ;
0Y
0[
b00000 <
0\
b000 W
b000 V
b000 U
b000 _
b000 `
b00000 P
b000 G
b00000 T
b000 O
b000 N
b000 Q
b00000 ^
b00000000000000000000000000000000 a
b00000000000000000000000000000000 K
b00000000000000000000000000000000 J
b00000000000000000000000000000000 M
b000 (
b00000000000000000000000000000000 L
b00000000000000000000000000000000 I
b00000000000000000000000000000000 H
b00000000000000000000000000000000 C
b00000000000000000000000000000000 B
b00000000000000000000000000000000 E
b000 0
b00000000000000000000000000000000 ?
b00000000000000000000000000000000 >
b000 -
b00000000000000000000000000000000 A
b00000000000000000000000000000000 @
b00000000000000000000000000000000 Z
b00000000000000000000000000000000 ]
b00000000000000000000000000000000 S
b00000000000000000000000000000000 R
b000 !
0,
0.
$end
#0
b011 U
b010 V
b001 W
1X
b00001 )
b00010 *
b00011 +
#1
1F
1:
1,
1\
#6
11
0X
0:
#11
1D
1:
0\
#16
b00000000000000000000000000000001 '
0:
b00000000000000000000000000000001 /
#21
b001 `
b001 !
b00000000000000000000000000000001 "
b0000000000000000000000000000000000000000000000000000000000000001 2
b00000000000000000000000000000001 &
1:
b001 -
b001 N
b001 O
b001 _
#26
0:
#31
b010 `
b010 !
b00000000000000000000000000000001 a
b00000000000000000000000000000001 %
1:
b010 -
b010 N
b010 O
b010 _
#36
0:
#41
b011 `
b011 !
b00000000000000000000000000000001 $
1:
b011 -
b00000000000000000000000000000001 ]
b011 N
b011 O
b011 _
#46
0:
#51
b100 `
b000 !
b00000000000000000000000000000001 #
0D
0F
0,
b100 -
b100 N
b100 O
1:
b00000000000000000000000000000001 Z
1[
b100 _
#56
01
0:
#61
b001 0
b001 G
1:
b00000000000000000000000000000001 K
#66
0:
#71
b010 0
b010 G
1:
b00000000000000000000000000000001 J
#76
0:
#81
b011 0
b011 G
b00000000000000000000000000000001 I
1:
#86
0:
#91
b000 0
b001 Q
b000 G
b00000000000000000000000000000001 H
1:
#96
0:
#101
b001 0
b00000000000000000000000000000001 C
b001 G
1:
#106
0:
#111
b010 0
b00000000000000000000000000000001 B
b010 G
1:
#116
0:
#121
b011 0
b00000000000000000000000000000001 A
b011 G
1:
#126
0:
#131
b000 0
b010 Q
b00000000000000000000000000000001 E
b000 G
1:
#136
0:
#141
b001 0
b001 G
1:
b00000000000000000000000000000001 >
#146
0:
#151
b010 0
b010 G
1:
b00000000000000000000000000000001 =
#156
0:
#161
b011 0
b00000000000000000000000000000001 @
b011 G
1:
#166
0:
#171
b000 0
b011 Q
b000 G
1:
b00000000000000000000000000000001 ?
#176
0:
#181
b001 0
b00000000000000000000000000000001 3
b001 G
1:
#186
0:
#191
b010 0
b010 G
b00000000000000000000000000000001 8
1:
#196
0:
#201
b011 0
b00000000000000000000000000000001 7
b011 G
1:
#206
0:
#211
b000 G
b00000000000000000000000000000001 L
b00000000000000000000000000000001 M
1.
b000 0
b00000000000000000000000000000001 R
b00000000000000000000000000000001 S
14
b00000000000000000000000000000001 6
1Y
1:
0[
#216
0:
#221
b00100 P
b00001 T
b00101 )
b00001 9
b00110 *
1:
b00111 +
b00001 ;
b00001 <
b00100 ^
#226
0:
#231
b01000 P
b00010 T
b01001 )
b00010 9
b01010 *
1:
b01011 +
b00010 ;
b00010 <
b01000 ^
#236
0:
#241
b01100 P
b00011 T
b01101 )
b00011 9
b01110 *
1:
b01111 +
b00011 ;
b00011 <
b01100 ^
#246
0:
#251
1F
b10001 )
b10010 *
b10011 +
1,
b00000000000000000000000000000000 L
b00000000000000000000000000000000 M
0.
b10000 P
b00000000000000000000000000000000 R
b00000000000000000000000000000000 S
04
b00100 T
b00100 9
0Y
1:
b00100 ;
b00100 <
1\
b10000 ^
#256
b00000000000000000000000000000000 '
0:
b00000000000000000000000000000000 /
