test_run_dir/MatMulMC_should_multiply_identity_full_parallelism/MatMulMC.vcd
$date
2024-03-01T20:58+0000
$end
$version
0.2
$end
$comment

$end
$timescale 1ns  $end
$scope module MatMulMC $end
 $var wire 32 ! matrixBInternal_0_3 $end
 $var wire 32 " matrixBInternal_0_2 $end
 $var wire 32 # matrixBInternal_0_1 $end
 $var wire 32 $ matrixBInternal_0_0 $end
 $var wire 1 % outputValid $end
 $var wire 64 & product $end
 $var wire 32 ' resultMatrix_2_1 $end
 $var wire 32 ( resultMatrix_2_0 $end
 $var wire 32 ) resultMatrix_2_3 $end
 $var wire 32 * resultMatrix_2_2 $end
 $var wire 3 + colIdx $end
 $var wire 5 , rowBIdx_1 $end
 $var wire 5 - rowBIdx_3 $end
 $var wire 5 . rowBIdx_2 $end
 $var wire 3 / rowCounter $end
 $var wire 5 0 rowCIdx $end
 $var wire 3 1 colCIdx_3 $end
 $var wire 3 2 colCIdx_2 $end
 $var wire 3 3 colCIdx_1 $end
 $var wire 5 4 currIndA_3 $end
 $var wire 5 5 currIndA_1 $end
 $var wire 5 6 currIndA_2 $end
 $var wire 1 7 io_outBlock_valid $end
 $var wire 32 8 matrixAInternal_3_2 $end
 $var wire 32 9 matrixAInternal_3_3 $end
 $var wire 32 : matrixAInternal_3_0 $end
 $var wire 32 ; matrixAInternal_3_1 $end
 $var wire 32 < io_in_bits_bBlock_3 $end
 $var wire 32 = io_in_bits_bBlock_2 $end
 $var wire 32 > io_in_bits_bBlock_1 $end
 $var wire 32 ? io_in_bits_bBlock_0 $end
 $var wire 3 @ colAIdx $end
 $var wire 32 A matrixBInternal_1_3 $end
 $var wire 32 B matrixBInternal_1_2 $end
 $var wire 32 C matrixBInternal_1_1 $end
 $var wire 32 D matrixBInternal_1_0 $end
 $var wire 5 E rowAIdx $end
 $var wire 32 F resultMatrix_3_0 $end
 $var wire 3 G innerCounter $end
 $var wire 32 H resultMatrix_3_3 $end
 $var wire 32 I resultMatrix_3_2 $end
 $var wire 32 J resultMatrix_3_1 $end
 $var wire 32 K io_outBlock_bits_3 $end
 $var wire 32 L io_outBlock_bits_2 $end
 $var wire 3 M colBIdx_2 $end
 $var wire 3 N colBIdx_3 $end
 $var wire 3 O colBIdx_1 $end
 $var wire 32 P io_outBlock_bits_1 $end
 $var wire 32 Q io_outBlock_bits_0 $end
 $var wire 32 R matrixAInternal_2_3 $end
 $var wire 32 S matrixAInternal_2_0 $end
 $var wire 32 T matrixAInternal_2_1 $end
 $var wire 32 U matrixAInternal_2_2 $end
 $var wire 5 V currIndC $end
 $var wire 5 W currIndB $end
 $var wire 5 X currIndA $end
 $var wire 3 Y colBIdx $end
 $var wire 32 Z matrixAInternal_0_0 $end
 $var wire 32 [ matrixAInternal_0_1 $end
 $var wire 32 \ matrixAInternal_0_2 $end
 $var wire 32 ] matrixAInternal_0_3 $end
 $var wire 32 ^ matrixBInternal_2_3 $end
 $var wire 32 _ matrixBInternal_2_2 $end
 $var wire 32 ` matrixBInternal_2_1 $end
 $var wire 32 a matrixBInternal_2_0 $end
 $var wire 1 b io_in_ready $end
 $var wire 32 c io_in_bits_aBlock_1 $end
 $var wire 32 d io_in_bits_aBlock_2 $end
 $var wire 32 e io_in_bits_aBlock_0 $end
 $var wire 32 f io_in_bits_aBlock_3 $end
 $var wire 5 g rowBIdx $end
 $var wire 1 h stateOutputting $end
 $var wire 5 i rowCIdx_3 $end
 $var wire 1 j clock $end
 $var wire 64 k product_2 $end
 $var wire 5 l rowCIdx_1 $end
 $var wire 64 m product_3 $end
 $var wire 5 n rowCIdx_2 $end
 $var wire 64 o product_1 $end
 $var wire 1 p stateLoadMatrices $end
 $var wire 32 q resultMatrix_0_3 $end
 $var wire 32 r resultMatrix_0_2 $end
 $var wire 32 s resultMatrix_0_1 $end
 $var wire 32 t resultMatrix_0_0 $end
 $var wire 5 u loadCounterA $end
 $var wire 5 v loadCounterB $end
 $var wire 5 w loadCounterC $end
 $var wire 1 x reset $end
 $var wire 1 y stateIdle $end
 $var wire 32 z matrixAInternal_1_0 $end
 $var wire 32 { matrixAInternal_1_1 $end
 $var wire 32 | matrixAInternal_1_2 $end
 $var wire 32 } matrixAInternal_1_3 $end
 $var wire 3 ~ colCIdx $end
 $var wire 5 "! currIndC_1 $end
 $var wire 5 "" currIndC_2 $end
 $var wire 5 "# currIndC_3 $end
 $var wire 3 "$ colCounter $end
 $var wire 1 "% io_in_valid $end
 $var wire 3 "& colAIdx_3 $end
 $var wire 3 "' colAIdx_2 $end
 $var wire 3 "( colAIdx_1 $end
 $var wire 3 ") colIdx_1 $end
 $var wire 3 "* colIdx_3 $end
 $var wire 3 "+ colIdx_2 $end
 $var wire 32 ", resultMatrix_1_2 $end
 $var wire 32 "- resultMatrix_1_1 $end
 $var wire 32 ". resultMatrix_1_0 $end
 $var wire 32 "/ resultMatrix_1_3 $end
 $var wire 1 "0 inputReady $end
 $var wire 5 "1 rowAIdx_1 $end
 $var wire 5 "2 rowAIdx_2 $end
 $var wire 5 "3 rowAIdx_3 $end
 $var wire 5 "4 currIndB_2 $end
 $var wire 5 "5 currIndB_3 $end
 $var wire 5 "6 currIndB_1 $end
 $var wire 32 "7 matrixBInternal_3_3 $end
 $var wire 32 "8 matrixBInternal_3_2 $end
 $var wire 32 "9 matrixBInternal_3_1 $end
 $var wire 32 ": matrixBInternal_3_0 $end
 $var wire 1 "; stateMultiplying $end
$upscope $end
$enddefinitions $end
$dumpvars
b00000000000000000000000000000000 "/
b00000000000000000000000000000000 ".
b00000000000000000000000000000000 *
b00000000000000000000000000000000 "-
b00000000000000000000000000000000 ",
b00000000000000000000000000000000 '
b00000000000000000000000000000000 )
07
b00000000000000000000000000000000 (
b00000000000000000000000000000000 #
b00000000000000000000000000000000 "
b00000000000000000000000000000000 $
b00000000000000000000000000000000 !
b00000000000000000000000000000000 ;
b00000000000000000000000000000000 :
b00000000000000000000000000000000 =
b00000000000000000000000000000000 <
b00000000000000000000000000000000 9
b00000000000000000000000000000000 8
b00000000000000000000000000000000 "7
b00000000000000000000000000000000 ":
b00000000000000000000000000000000 "9
b00000000000000000000000000000000 "8
0b
0h
0j
0p
0x
0y
b0000000000000000000000000000000000000000000000000000000000000000 o
b0000000000000000000000000000000000000000000000000000000000000000 m
b0000000000000000000000000000000000000000000000000000000000000000 k
0"%
0"0
0";
b0000000000000000000000000000000000000000000000000000000000000000 &
b00000 "1
b000 ~
b00000 -
b00000 "3
b00000 ,
b00000 "2
b00000 "5
b00000 .
b00000 "4
b00000 0
b00000 "6
b00000 5
b00000 4
b00000 6
b00000 "!
b00000 "#
b00000 ""
b000 Y
b00000 E
b000 G
b00000 W
b00000 V
b00000000000000000000000000000000 f
b00000 X
b000 O
b00000000000000000000000000000000 c
b000 N
b00000000000000000000000000000000 e
b00000000000000000000000000000000 d
b00000000000000000000000000000000 _
b00000000000000000000000000000000 ^
b000 M
b00000000000000000000000000000000 a
b00000000000000000000000000000000 `
b000 "&
b00000000000000000000000000000000 {
b000 "'
b00000000000000000000000000000000 z
b000 "$
b00000000000000000000000000000000 }
b00000000000000000000000000000000 |
b000 3
b00000 g
b000 2
b00000 i
b00000000000000000000000000000000 s
b00000000000000000000000000000000 r
b000 @
b00000 l
b00000000000000000000000000000000 t
b000 "*
b000 "+
b00000 n
b000 "(
b00000000000000000000000000000000 q
b000 ")
b00000000000000000000000000000000 K
b00000000000000000000000000000000 J
b00000 u
b00000000000000000000000000000000 L
b00000 w
b00000 v
b00000000000000000000000000000000 F
b00000000000000000000000000000000 I
b00000000000000000000000000000000 H
b000 /
b00000000000000000000000000000000 C
b00000000000000000000000000000000 B
b000 1
b00000000000000000000000000000000 D
b000 +
b00000000000000000000000000000000 ?
b00000000000000000000000000000000 >
b00000000000000000000000000000000 A
b00000000000000000000000000000000 [
b00000000000000000000000000000000 Z
b00000000000000000000000000000000 ]
b00000000000000000000000000000000 \
0%
b00000000000000000000000000000000 S
b00000000000000000000000000000000 R
b00000000000000000000000000000000 U
b00000000000000000000000000000000 T
b00000000000000000000000000000000 Q
b00000000000000000000000000000000 P
$end
#0
b00010 ""
b00011 "#
b011 "&
b010 "'
b001 "(
b001 ")
b011 "*
b010 "+
b010 M
b011 N
b001 O
b011 1
b010 2
b00010 "4
b001 3
b00011 "5
b00011 4
b00001 "6
b00001 5
b00010 6
1x
b00001 "!
#1
1b
1y
1j
1"0
#6
1"%
0x
0j
#11
1p
0y
1j
#16
b00000000000000000000000000000001 e
0j
b00000000000000000000000000000001 ?
#21
b00000000000000000000000000000001 $
b00001 E
b0000000000000000000000000000000000000000000000000000000000000001 &
b00001 g
1j
b00001 ,
b00001 -
b00001 .
b00001 "1
b00001 "2
b00001 "3
b00110 "4
b00111 "5
b00111 4
b00101 "6
b00101 5
b00100 u
b00110 6
b00100 v
b00100 W
b00100 X
b00000000000000000000000000000001 Z
#26
b00000000000000000000000000000001 c
b00000000000000000000000000000000 e
0j
b00000000000000000000000000000001 >
b00000000000000000000000000000000 ?
#31
b00000000000000000000000000000001 C
b00010 E
b00010 g
1j
b00010 ,
b00010 -
b00010 .
b00010 "1
b00010 "2
b00010 "3
b01010 "4
b01011 "5
b01011 4
b01001 "6
b01001 5
b01000 u
b01010 6
b01000 v
b01000 W
b01000 X
b00000000000000000000000000000001 {
#36
b00000000000000000000000000000000 c
b00000000000000000000000000000001 d
0j
b00000000000000000000000000000001 =
b00000000000000000000000000000000 >
#41
b00011 E
b00011 g
1j
b00011 ,
b00011 -
b00011 .
b00011 "1
b00011 "2
b00011 "3
b01110 "4
b01111 "5
b01111 4
b01101 "6
b01101 5
b00000000000000000000000000000001 U
b01100 u
b01110 6
b01100 v
b01100 W
b01100 X
b00000000000000000000000000000001 _
#46
b00000000000000000000000000000000 d
b00000000000000000000000000000001 f
0j
b00000000000000000000000000000001 <
b00000000000000000000000000000000 =
#51
b00100 E
0"0
b00100 "1
b00100 "2
b00100 "3
b10010 "4
b10011 "5
b10001 "6
b00000000000000000000000000000001 "7
b10000 W
b10000 X
1";
0b
b00100 g
1j
b00100 ,
b00100 -
b00100 .
0p
b10011 4
b10001 5
b10000 u
b10010 6
b10000 v
b00000000000000000000000000000001 9
#56
0"%
0j
#61
b00000000000000000000000000000001 t
b0000000000000000000000000000000000000000000000000000000000000000 &
b001 G
1j
#66
0j
#71
b010 G
1j
#76
0j
#81
b011 G
1j
#86
0j
#91
b000 G
1j
b001 /
#96
0j
#101
b001 G
1j
b0000000000000000000000000000000000000000000000000000000000000001 o
#106
0j
#111
b010 G
1j
b00000000000000000000000000000001 "-
b0000000000000000000000000000000000000000000000000000000000000000 o
#116
0j
#121
b011 G
1j
#126
0j
#131
b000 G
1j
b010 /
#136
0j
#141
b001 G
1j
#146
0j
#151
b010 G
1j
b0000000000000000000000000000000000000000000000000000000000000001 k
#156
0j
#161
b011 G
b00000000000000000000000000000001 *
1j
b0000000000000000000000000000000000000000000000000000000000000000 k
#166
0j
#171
b000 G
1j
b011 /
#176
0j
#181
b001 G
1j
#186
0j
#191
b010 G
1j
#196
0j
#201
b011 G
1j
b0000000000000000000000000000000000000000000000000000000000000001 m
#206
0j
#211
b00000000000000000000000000000001 Q
1%
17
b000 G
b00000000000000000000000000000001 H
1h
0";
1j
b0000000000000000000000000000000000000000000000000000000000000000 m
#216
0j
#221
b00110 ""
b00111 "#
b00001 i
1j
b00001 l
b00001 n
b00001 0
b00000000000000000000000000000001 P
b00000000000000000000000000000000 Q
b00100 V
b00100 w
b00101 "!
#226
0j
#231
b01010 ""
b01011 "#
b00010 i
1j
b00000000000000000000000000000001 L
b00010 l
b00010 n
b00010 0
b00000000000000000000000000000000 P
b01000 V
b01000 w
b01001 "!
#236
0j
#241
b01110 ""
b01111 "#
b00011 i
1j
b00000000000000000000000000000001 K
b00000000000000000000000000000000 L
b00011 l
b00011 n
b00011 0
b01100 V
b01100 w
b01101 "!
#246
0j
#251
b10010 ""
b10011 "#
1b
0%
0h
b00100 i
1j
b00000000000000000000000000000000 K
b00100 l
b00100 n
1"0
b00100 0
b10000 V
07
b10000 w
1y
b10001 "!
#256
b00000000000000000000000000000000 f
0j
b00000000000000000000000000000000 <
