test_run_dir/MatMulMC_should_multiply_in4x2_x_in2x4_no_parallelism/MatMulMC.vcd
$date
2024-03-01T20:58+0000
$end
$version
0.2
$end
$comment

$end
$timescale 1ns  $end
$scope module MatMulMC $end
 $var wire 3 ! colBIdx $end
 $var wire 32 " matrixAInternal_0_0 $end
 $var wire 32 # matrixBInternal_0_3 $end
 $var wire 32 $ matrixAInternal_0_1 $end
 $var wire 32 % matrixBInternal_0_2 $end
 $var wire 32 & matrixBInternal_0_1 $end
 $var wire 32 ' matrixBInternal_0_0 $end
 $var wire 1 ( io_in_ready $end
 $var wire 1 ) outputValid $end
 $var wire 32 * io_in_bits_aBlock_1 $end
 $var wire 32 + io_in_bits_aBlock_0 $end
 $var wire 64 , product $end
 $var wire 4 - rowBIdx $end
 $var wire 1 . stateOutputting $end
 $var wire 5 / rowCIdx_3 $end
 $var wire 1 0 clock $end
 $var wire 5 1 rowCIdx_1 $end
 $var wire 5 2 rowCIdx_2 $end
 $var wire 32 3 resultMatrix_2_1 $end
 $var wire 32 4 resultMatrix_2_0 $end
 $var wire 32 5 resultMatrix_2_3 $end
 $var wire 32 6 resultMatrix_2_2 $end
 $var wire 1 7 stateLoadMatrices $end
 $var wire 3 8 colIdx $end
 $var wire 32 9 resultMatrix_0_3 $end
 $var wire 32 : resultMatrix_0_2 $end
 $var wire 32 ; resultMatrix_0_1 $end
 $var wire 32 < resultMatrix_0_0 $end
 $var wire 4 = rowBIdx_1 $end
 $var wire 4 > loadCounterA $end
 $var wire 4 ? loadCounterB $end
 $var wire 5 @ loadCounterC $end
 $var wire 3 A rowCounter $end
 $var wire 5 B rowCIdx $end
 $var wire 3 C colCIdx_3 $end
 $var wire 3 D colCIdx_2 $end
 $var wire 3 E colCIdx_1 $end
 $var wire 4 F currIndA_1 $end
 $var wire 1 G reset $end
 $var wire 1 H io_outBlock_valid $end
 $var wire 32 I matrixAInternal_3_0 $end
 $var wire 32 J matrixAInternal_3_1 $end
 $var wire 1 K stateIdle $end
 $var wire 32 L matrixAInternal_1_0 $end
 $var wire 32 M matrixAInternal_1_1 $end
 $var wire 32 N io_in_bits_bBlock_1 $end
 $var wire 32 O io_in_bits_bBlock_0 $end
 $var wire 3 P colCIdx $end
 $var wire 5 Q currIndC_1 $end
 $var wire 5 R currIndC_2 $end
 $var wire 5 S currIndC_3 $end
 $var wire 2 T colAIdx $end
 $var wire 32 U matrixBInternal_1_3 $end
 $var wire 32 V matrixBInternal_1_2 $end
 $var wire 32 W matrixBInternal_1_1 $end
 $var wire 32 X matrixBInternal_1_0 $end
 $var wire 4 Y rowAIdx $end
 $var wire 3 Z colCounter $end
 $var wire 1 [ io_in_valid $end
 $var wire 32 \ resultMatrix_3_0 $end
 $var wire 2 ] innerCounter $end
 $var wire 32 ^ resultMatrix_3_3 $end
 $var wire 32 _ resultMatrix_3_2 $end
 $var wire 32 ` resultMatrix_3_1 $end
 $var wire 2 a colAIdx_1 $end
 $var wire 32 b resultMatrix_1_2 $end
 $var wire 32 c resultMatrix_1_1 $end
 $var wire 32 d resultMatrix_1_0 $end
 $var wire 32 e resultMatrix_1_3 $end
 $var wire 1 f inputReady $end
 $var wire 32 g io_outBlock_bits_3 $end
 $var wire 32 h io_outBlock_bits_2 $end
 $var wire 3 i colBIdx_1 $end
 $var wire 4 j rowAIdx_1 $end
 $var wire 32 k io_outBlock_bits_1 $end
 $var wire 32 l io_outBlock_bits_0 $end
 $var wire 4 m currIndB_1 $end
 $var wire 1 n stateMultiplying $end
 $var wire 32 o matrixAInternal_2_0 $end
 $var wire 32 p matrixAInternal_2_1 $end
 $var wire 5 q currIndC $end
 $var wire 4 r currIndB $end
 $var wire 4 s currIndA $end
$upscope $end
$enddefinitions $end
$dumpvars
00
b00000000000000000000000000000000 +
b00000000000000000000000000000000 *
b00000000000000000000000000000000 '
b00000000000000000000000000000000 &
07
b00000000000000000000000000000000 #
b00000000000000000000000000000000 "
b00000000000000000000000000000000 %
b00000000000000000000000000000000 $
b00000000000000000000000000000000 ;
b00000000000000000000000000000000 :
b00000000000000000000000000000000 <
b0000000000000000000000000000000000000000000000000000000000000000 ,
b00000000000000000000000000000000 6
b00000000000000000000000000000000 9
0G
0H
b00000000000000000000000000000000 3
b00000000000000000000000000000000 5
0K
b00000000000000000000000000000000 4
b00000 /
b00000 1
b00000 2
b000 i
b0000 -
0[
b00000 @
b00000 B
0f
b0000 =
b000 Z
0n
b00000 Q
b00000 S
b00000000000000000000000000000000 k
b00000 R
b00000000000000000000000000000000 l
b000 C
b00000000000000000000000000000000 g
b0000 >
b000 E
b0000 ?
b000 D
b00000000000000000000000000000000 h
b00000000000000000000000000000000 c
b00000000000000000000000000000000 b
b00000000000000000000000000000000 e
b000 P
b00000000000000000000000000000000 d
b00000000000000000000000000000000 _
b00000000000000000000000000000000 ^
b0000 F
b00000000000000000000000000000000 `
b000 8
b00 a
b000 A
b00000000000000000000000000000000 o
b0000 Y
b00000 q
b00000000000000000000000000000000 p
b00000000000000000000000000000000 J
b00000000000000000000000000000000 M
b00000000000000000000000000000000 L
b00 ]
b00000000000000000000000000000000 I
b0000 m
b0000 j
b00 T
b0000 r
b0000 s
b00000000000000000000000000000000 \
b00000000000000000000000000000000 W
b00000000000000000000000000000000 V
b00000000000000000000000000000000 X
0(
0)
b000 !
b00000000000000000000000000000000 U
b00000000000000000000000000000000 O
b00000000000000000000000000000000 N
0.
$end
#0
b00001 Q
b01 a
b00010 R
b011 C
b00011 S
b010 D
b001 E
b0001 F
1G
b001 i
b0001 m
#1
10
1f
1(
1K
#6
00
0G
1[
#11
10
17
0K
#16
00
b00000000000000000000000000000010 *
b00000000000000000000000000000001 +
b00000000000000000000000000000010 N
b00000000000000000000000000000001 O
#21
b010 !
b00000000000000000000000000000001 "
b00000000000000000000000000000010 $
b00000000000000000000000000000010 &
b0011 F
b00000000000000000000000000000001 '
b011 i
b0001 j
b0000000000000000000000000000000000000000000000000000000000000001 ,
b0011 m
10
b0010 r
b0010 s
b0001 Y
b0010 >
b0010 ?
#26
00
b00000000000000000000000000000100 *
b00000000000000000000000000000011 +
b00000000000000000000000000000100 N
b00000000000000000000000000000011 O
#31
b000 !
b00000000000000000000000000000100 #
b00000000000000000000000000000011 %
b0101 F
b001 i
b0010 j
b00000000000000000000000000000011 L
b0001 -
b00000000000000000000000000000100 M
b0101 m
10
b0100 r
b0100 s
b0010 Y
b0001 =
b0100 >
b0100 ?
#36
00
b00000000000000000000000000000110 *
b00000000000000000000000000000101 +
b00000000000000000000000000000110 N
b00000000000000000000000000000101 O
#41
b010 !
b0111 F
b011 i
b0011 j
b0111 m
b00000000000000000000000000000101 o
10
b00000000000000000000000000000110 p
b0110 r
b0110 s
b00000000000000000000000000000110 W
b00000000000000000000000000000101 X
b0011 Y
b0110 >
b0110 ?
#46
00
b00000000000000000000000000001000 *
b00000000000000000000000000000111 +
b00000000000000000000000000001000 N
b00000000000000000000000000000111 O
#51
b000 !
b1001 F
0f
0(
b00000000000000000000000000000111 I
b001 i
b00000000000000000000000000001000 J
b0100 j
b0010 -
b1001 m
1n
10
b1000 r
b1000 s
b00000000000000000000000000001000 U
b00000000000000000000000000000111 V
07
b0100 Y
b0010 =
b1000 >
b1000 ?
#56
00
0[
#61
10
b0000000000000000000000000000000000000000000000000000000000001010 ,
b00000000000000000000000000000001 <
b01 ]
#66
00
#71
10
b001 8
b001 Z
b0000000000000000000000000000000000000000000000000000000000000010 ,
b00000000000000000000000000001011 <
b00 ]
#76
00
#81
10
b00000000000000000000000000000010 ;
b0000000000000000000000000000000000000000000000000000000000001100 ,
b01 ]
#86
00
#91
10
b010 8
b010 Z
b00000000000000000000000000001110 ;
b0000000000000000000000000000000000000000000000000000000000000011 ,
b00 ]
#96
00
#101
10
b00000000000000000000000000000011 :
b0000000000000000000000000000000000000000000000000000000000001110 ,
b01 ]
#106
00
#111
10
b011 8
b00000000000000000000000000010001 :
b011 Z
b0000000000000000000000000000000000000000000000000000000000000100 ,
b00 ]
#116
00
#121
10
b00000000000000000000000000000100 9
b0000000000000000000000000000000000000000000000000000000000010000 ,
b01 ]
#126
00
#131
10
b001 A
b000 8
b00000000000000000000000000010100 9
b000 Z
b0000000000000000000000000000000000000000000000000000000000000011 ,
b00 ]
#136
00
#141
10
b00000000000000000000000000000011 d
b0000000000000000000000000000000000000000000000000000000000010100 ,
b01 ]
#146
00
#151
10
b00000000000000000000000000010111 d
b001 8
b001 Z
b0000000000000000000000000000000000000000000000000000000000000110 ,
b00 ]
#156
00
#161
10
b00000000000000000000000000000110 c
b0000000000000000000000000000000000000000000000000000000000011000 ,
b01 ]
#166
00
#171
10
b00000000000000000000000000011110 c
b010 8
b010 Z
b0000000000000000000000000000000000000000000000000000000000001001 ,
b00 ]
#176
00
#181
10
b00000000000000000000000000001001 b
b0000000000000000000000000000000000000000000000000000000000011100 ,
b01 ]
#186
00
#191
10
b00000000000000000000000000100101 b
b011 8
b011 Z
b0000000000000000000000000000000000000000000000000000000000001100 ,
b00 ]
#196
00
#201
10
b00000000000000000000000000001100 e
b0000000000000000000000000000000000000000000000000000000000100000 ,
b01 ]
#206
00
#211
10
b010 A
b00000000000000000000000000101100 e
b000 8
b000 Z
b0000000000000000000000000000000000000000000000000000000000000101 ,
b00 ]
#216
00
#221
10
b00000000000000000000000000000101 4
b0000000000000000000000000000000000000000000000000000000000011110 ,
b01 ]
#226
00
#231
10
b00000000000000000000000000100011 4
b001 8
b001 Z
b0000000000000000000000000000000000000000000000000000000000001010 ,
b00 ]
#236
00
#241
10
b00000000000000000000000000001010 3
b0000000000000000000000000000000000000000000000000000000000100100 ,
b01 ]
#246
00
#251
10
b00000000000000000000000000101110 3
b010 8
b010 Z
b0000000000000000000000000000000000000000000000000000000000001111 ,
b00 ]
#256
00
#261
10
b00000000000000000000000000001111 6
b0000000000000000000000000000000000000000000000000000000000101010 ,
b01 ]
#266
00
#271
10
b00000000000000000000000000111001 6
b011 8
b011 Z
b0000000000000000000000000000000000000000000000000000000000010100 ,
b00 ]
#276
00
#281
10
b00000000000000000000000000010100 5
b0000000000000000000000000000000000000000000000000000000000110000 ,
b01 ]
#286
00
#291
10
b011 A
b00000000000000000000000001000100 5
b000 8
b000 Z
b0000000000000000000000000000000000000000000000000000000000000111 ,
b00 ]
#296
00
#301
10
b0000000000000000000000000000000000000000000000000000000000101000 ,
b00000000000000000000000000000111 \
b01 ]
#306
00
#311
10
b001 8
b001 Z
b0000000000000000000000000000000000000000000000000000000000001110 ,
b00000000000000000000000000101111 \
b00 ]
#316
00
#321
10
b00000000000000000000000000001110 `
b0000000000000000000000000000000000000000000000000000000000110000 ,
b01 ]
#326
00
#331
10
b00000000000000000000000000111110 `
b010 8
b010 Z
b0000000000000000000000000000000000000000000000000000000000010101 ,
b00 ]
#336
00
#341
10
b0000000000000000000000000000000000000000000000000000000000111000 ,
b01 ]
b00000000000000000000000000010101 _
#346
00
#351
10
b011 8
b011 Z
b0000000000000000000000000000000000000000000000000000000000011100 ,
b00 ]
b00000000000000000000000001001101 _
#356
00
#361
10
b0000000000000000000000000000000000000000000000000000000001000000 ,
b01 ]
b00000000000000000000000000011100 ^
#366
00
#371
b00000000000000000000000000010100 g
1H
b00000000000000000000000000010001 h
1)
b00000000000000000000000000001110 k
b0000000000000000000000000000000000000000000000000000000000000111 ,
b00000000000000000000000000001011 l
1.
0n
10
b000 8
b000 Z
b00 ]
b00000000000000000000000001011100 ^
#376
00
#381
b00100 @
b00001 B
b00000000000000000000000000101100 g
b00000000000000000000000000100101 h
b00000000000000000000000000011110 k
b00000000000000000000000000010111 l
b00001 /
10
b00001 1
b00101 Q
b00100 q
b00001 2
b00110 R
b00111 S
#386
00
#391
b01000 @
b00010 B
b00000000000000000000000001000100 g
b00000000000000000000000000111001 h
b00000000000000000000000000101110 k
b00000000000000000000000000100011 l
b00010 /
10
b00010 1
b01001 Q
b01000 q
b00010 2
b01010 R
b01011 S
#396
00
#401
b01100 @
b00011 B
b00000000000000000000000001011100 g
b00000000000000000000000001001101 h
b00000000000000000000000000111110 k
b00000000000000000000000000101111 l
b00011 /
10
b00011 1
b01101 Q
b01100 q
b00011 2
b01110 R
b01111 S
#406
00
#411
b10000 @
b00100 B
1f
b00000000000000000000000000000000 g
1(
0H
b00000000000000000000000000000000 h
0)
1K
b00000000000000000000000000000000 k
b00000000000000000000000000000000 l
0.
b00100 /
10
b00100 1
b10001 Q
b10000 q
b00100 2
b10010 R
b10011 S
#416
00
b00000000000000000000000000000000 *
b00000000000000000000000000000000 +
b00000000000000000000000000000000 N
b00000000000000000000000000000000 O
