test_run_dir/MatMulMC_should_multiply_in4x2_x_in2x4_full_parallelism/MatMulMC.vcd
$date
2024-03-01T20:58+0000
$end
$version
0.2
$end
$comment

$end
$timescale 1ns  $end
$scope module MatMulMC $end
 $var wire 3 ! colBIdx $end
 $var wire 32 " matrixAInternal_0_0 $end
 $var wire 32 # matrixBInternal_0_3 $end
 $var wire 32 $ matrixAInternal_0_1 $end
 $var wire 32 % matrixBInternal_0_2 $end
 $var wire 32 & matrixBInternal_0_1 $end
 $var wire 32 ' matrixBInternal_0_0 $end
 $var wire 1 ( io_in_ready $end
 $var wire 1 ) outputValid $end
 $var wire 32 * io_in_bits_aBlock_1 $end
 $var wire 32 + io_in_bits_aBlock_0 $end
 $var wire 64 , product $end
 $var wire 4 - rowBIdx $end
 $var wire 1 . stateOutputting $end
 $var wire 5 / rowCIdx_3 $end
 $var wire 1 0 clock $end
 $var wire 64 1 product_2 $end
 $var wire 5 2 rowCIdx_1 $end
 $var wire 64 3 product_3 $end
 $var wire 5 4 rowCIdx_2 $end
 $var wire 64 5 product_1 $end
 $var wire 32 6 resultMatrix_2_1 $end
 $var wire 32 7 resultMatrix_2_0 $end
 $var wire 32 8 resultMatrix_2_3 $end
 $var wire 32 9 resultMatrix_2_2 $end
 $var wire 1 : stateLoadMatrices $end
 $var wire 3 ; colIdx $end
 $var wire 32 < resultMatrix_0_3 $end
 $var wire 32 = resultMatrix_0_2 $end
 $var wire 32 > resultMatrix_0_1 $end
 $var wire 32 ? resultMatrix_0_0 $end
 $var wire 4 @ rowBIdx_1 $end
 $var wire 4 A loadCounterA $end
 $var wire 4 B loadCounterB $end
 $var wire 5 C loadCounterC $end
 $var wire 3 D rowCounter $end
 $var wire 5 E rowCIdx $end
 $var wire 3 F colCIdx_3 $end
 $var wire 3 G colCIdx_2 $end
 $var wire 3 H colCIdx_1 $end
 $var wire 4 I currIndA_1 $end
 $var wire 1 J reset $end
 $var wire 1 K io_outBlock_valid $end
 $var wire 32 L matrixAInternal_3_0 $end
 $var wire 32 M matrixAInternal_3_1 $end
 $var wire 1 N stateIdle $end
 $var wire 32 O matrixAInternal_1_0 $end
 $var wire 32 P matrixAInternal_1_1 $end
 $var wire 32 Q io_in_bits_bBlock_1 $end
 $var wire 32 R io_in_bits_bBlock_0 $end
 $var wire 3 S colCIdx $end
 $var wire 5 T currIndC_1 $end
 $var wire 5 U currIndC_2 $end
 $var wire 5 V currIndC_3 $end
 $var wire 2 W colAIdx $end
 $var wire 32 X matrixBInternal_1_3 $end
 $var wire 32 Y matrixBInternal_1_2 $end
 $var wire 32 Z matrixBInternal_1_1 $end
 $var wire 32 [ matrixBInternal_1_0 $end
 $var wire 4 \ rowAIdx $end
 $var wire 3 ] colCounter $end
 $var wire 1 ^ io_in_valid $end
 $var wire 32 _ resultMatrix_3_0 $end
 $var wire 2 ` innerCounter $end
 $var wire 32 a resultMatrix_3_3 $end
 $var wire 32 b resultMatrix_3_2 $end
 $var wire 32 c resultMatrix_3_1 $end
 $var wire 2 d colAIdx_1 $end
 $var wire 3 e colIdx_1 $end
 $var wire 3 f colIdx_3 $end
 $var wire 3 g colIdx_2 $end
 $var wire 32 h resultMatrix_1_2 $end
 $var wire 32 i resultMatrix_1_1 $end
 $var wire 32 j resultMatrix_1_0 $end
 $var wire 32 k resultMatrix_1_3 $end
 $var wire 1 l inputReady $end
 $var wire 32 m io_outBlock_bits_3 $end
 $var wire 32 n io_outBlock_bits_2 $end
 $var wire 3 o colBIdx_1 $end
 $var wire 4 p rowAIdx_1 $end
 $var wire 32 q io_outBlock_bits_1 $end
 $var wire 32 r io_outBlock_bits_0 $end
 $var wire 4 s currIndB_1 $end
 $var wire 1 t stateMultiplying $end
 $var wire 32 u matrixAInternal_2_0 $end
 $var wire 32 v matrixAInternal_2_1 $end
 $var wire 5 w currIndC $end
 $var wire 4 x currIndB $end
 $var wire 4 y currIndA $end
$upscope $end
$enddefinitions $end
$dumpvars
00
b00000000000000000000000000000000 +
b00000000000000000000000000000000 *
b00000000000000000000000000000000 '
b00000000000000000000000000000000 &
b00000000000000000000000000000000 #
b0000000000000000000000000000000000000000000000000000000000000000 1
b00000000000000000000000000000000 "
0:
b00000000000000000000000000000000 %
b00000000000000000000000000000000 $
b0000000000000000000000000000000000000000000000000000000000000000 5
b0000000000000000000000000000000000000000000000000000000000000000 3
b00000000000000000000000000000000 =
b00000000000000000000000000000000 <
b0000000000000000000000000000000000000000000000000000000000000000 ,
b00000000000000000000000000000000 7
b00000000000000000000000000000000 6
b00000000000000000000000000000000 9
b00000000000000000000000000000000 8
0J
0K
b00000 /
0N
b000 g
b000 f
b00000 2
b00000 4
b000 e
b000 o
b0000 -
0^
b00000 C
b00000 E
b000 S
0l
b000 ]
b000 G
b00000000000000000000000000000000 k
b000 F
b00000000000000000000000000000000 j
b0000 B
b00000 U
b00000000000000000000000000000000 m
b000 H
b00000 T
b0000 @
0t
b0000 A
b00000 V
b00000000000000000000000000000000 i
b000 D
b00000000000000000000000000000000 h
b00000000000000000000000000000000 c
b00000000000000000000000000000000 b
b00000000000000000000000000000000 _
b0000 I
b00000000000000000000000000000000 a
b00000000000000000000000000000000 v
b0000 \
b00 `
b00000000000000000000000000000000 r
b00000000000000000000000000000000 u
b000 ;
b00 d
b00000000000000000000000000000000 n
b00000000000000000000000000000000 q
b00 W
b00000000000000000000000000000000 M
b00000000000000000000000000000000 L
b00000 w
b00000000000000000000000000000000 ?
b00000000000000000000000000000000 >
b00000000000000000000000000000000 [
b00000000000000000000000000000000 Z
b0000 s
b0000 p
b00000000000000000000000000000000 Y
b00000000000000000000000000000000 X
0(
0)
b00000000000000000000000000000000 R
b000 !
b0000 x
b00000000000000000000000000000000 O
b0000 y
0.
b00000000000000000000000000000000 Q
b00000000000000000000000000000000 P
$end
#0
b01 d
b001 e
b011 F
b011 f
b010 G
b010 g
b001 H
b0001 I
1J
b001 o
b0001 s
b00001 T
b00010 U
b00011 V
#1
10
1(
1l
1N
#6
00
0J
1^
#11
10
1:
0N
#16
00
b00000000000000000000000000000010 Q
b00000000000000000000000000000001 R
b00000000000000000000000000000010 *
b00000000000000000000000000000001 +
#21
b010 !
b0010 A
b00000000000000000000000000000001 "
b0010 B
b00000000000000000000000000000010 $
b00000000000000000000000000000010 &
b00000000000000000000000000000001 '
b0011 I
b0000000000000000000000000000000000000000000000000000000000000001 ,
b011 o
10
b0001 p
b0011 s
b0000000000000000000000000000000000000000000000000000000000000010 5
b0010 x
b0010 y
b0001 \
#26
00
b00000000000000000000000000000100 Q
b00000000000000000000000000000011 R
b00000000000000000000000000000100 *
b00000000000000000000000000000011 +
#31
b0001 @
b000 !
b0100 A
b0100 B
b00000000000000000000000000000100 #
b00000000000000000000000000000011 %
b0101 I
b0001 -
b00000000000000000000000000000011 O
b001 o
10
b00000000000000000000000000000100 P
b0010 p
b0000000000000000000000000000000000000000000000000000000000000011 1
b0000000000000000000000000000000000000000000000000000000000000100 3
b0101 s
b0100 x
b0100 y
b0010 \
#36
00
b00000000000000000000000000000110 Q
b00000000000000000000000000000101 R
b00000000000000000000000000000110 *
b00000000000000000000000000000101 +
#41
b010 !
b0110 A
b0110 B
b0111 I
b011 o
10
b0011 p
b0111 s
b00000000000000000000000000000101 u
b00000000000000000000000000000110 v
b0110 x
b0110 y
b00000000000000000000000000000110 Z
b00000000000000000000000000000101 [
b0011 \
#46
00
b00000000000000000000000000001000 Q
b00000000000000000000000000000111 R
b00000000000000000000000000001000 *
b00000000000000000000000000000111 +
#51
b0010 @
b000 !
b1000 A
b1000 B
0(
b1001 I
b00000000000000000000000000000111 L
0l
b0010 -
b00000000000000000000000000001000 M
b001 o
10
b0100 p
b1001 s
1t
b00000000000000000000000000001000 X
b1000 x
b00000000000000000000000000000111 Y
b1000 y
0:
b0100 \
#56
00
0^
#61
10
b01 `
b0000000000000000000000000000000000000000000000000000000000001110 1
b0000000000000000000000000000000000000000000000000000000000010000 3
b0000000000000000000000000000000000000000000000000000000000001100 5
b0000000000000000000000000000000000000000000000000000000000001010 ,
b00000000000000000000000000000100 <
b00000000000000000000000000000011 =
b00000000000000000000000000000010 >
b00000000000000000000000000000001 ?
#66
00
#71
10
b00 `
b0000000000000000000000000000000000000000000000000000000000001001 1
b0000000000000000000000000000000000000000000000000000000000001100 3
b001 D
b0000000000000000000000000000000000000000000000000000000000000110 5
b0000000000000000000000000000000000000000000000000000000000000011 ,
b00000000000000000000000000010100 <
b00000000000000000000000000010001 =
b00000000000000000000000000001110 >
b00000000000000000000000000001011 ?
#76
00
#81
10
b01 `
b0000000000000000000000000000000000000000000000000000000000011100 1
b0000000000000000000000000000000000000000000000000000000000100000 3
b0000000000000000000000000000000000000000000000000000000000011000 5
b00000000000000000000000000001001 h
b00000000000000000000000000000110 i
b00000000000000000000000000000011 j
b00000000000000000000000000001100 k
b0000000000000000000000000000000000000000000000000000000000010100 ,
#86
00
#91
10
b00 `
b0000000000000000000000000000000000000000000000000000000000001111 1
b0000000000000000000000000000000000000000000000000000000000010100 3
b010 D
b0000000000000000000000000000000000000000000000000000000000001010 5
b00000000000000000000000000100101 h
b00000000000000000000000000011110 i
b00000000000000000000000000010111 j
b00000000000000000000000000101100 k
b0000000000000000000000000000000000000000000000000000000000000101 ,
#96
00
#101
10
b01 `
b0000000000000000000000000000000000000000000000000000000000101010 1
b0000000000000000000000000000000000000000000000000000000000110000 3
b0000000000000000000000000000000000000000000000000000000000100100 5
b00000000000000000000000000001010 6
b00000000000000000000000000000101 7
b00000000000000000000000000010100 8
b00000000000000000000000000001111 9
b0000000000000000000000000000000000000000000000000000000000011110 ,
#106
00
#111
10
b00 `
b0000000000000000000000000000000000000000000000000000000000010101 1
b0000000000000000000000000000000000000000000000000000000000011100 3
b011 D
b0000000000000000000000000000000000000000000000000000000000001110 5
b00000000000000000000000000101110 6
b00000000000000000000000000100011 7
b00000000000000000000000001000100 8
b00000000000000000000000000111001 9
b0000000000000000000000000000000000000000000000000000000000000111 ,
#116
00
#121
10
b01 `
b0000000000000000000000000000000000000000000000000000000000111000 1
b00000000000000000000000000011100 a
b00000000000000000000000000010101 b
b0000000000000000000000000000000000000000000000000000000001000000 3
b00000000000000000000000000001110 c
b0000000000000000000000000000000000000000000000000000000000110000 5
b0000000000000000000000000000000000000000000000000000000000101000 ,
b00000000000000000000000000000111 _
#126
00
#131
b00 `
b00000000000000000000000001011100 a
b00000000000000000000000001001101 b
b00000000000000000000000000111110 c
1)
1K
b0000000000000000000000000000000000000000000000000000000000000111 ,
b00000000000000000000000000010100 m
1.
b00000000000000000000000000010001 n
10
b0000000000000000000000000000000000000000000000000000000000010101 1
b00000000000000000000000000001110 q
b00000000000000000000000000001011 r
b0000000000000000000000000000000000000000000000000000000000011100 3
0t
b0000000000000000000000000000000000000000000000000000000000001110 5
b00000000000000000000000000101111 _
#136
00
#141
b00100 C
b00001 E
b00000000000000000000000000101100 m
b00000000000000000000000000100101 n
b00001 /
10
b00000000000000000000000000011110 q
b00001 2
b00000000000000000000000000010111 r
b00001 4
b00101 T
b00110 U
b00111 V
b00100 w
#146
00
#151
b01000 C
b00010 E
b00000000000000000000000001000100 m
b00000000000000000000000000111001 n
b00010 /
10
b00000000000000000000000000101110 q
b00010 2
b00000000000000000000000000100011 r
b00010 4
b01001 T
b01010 U
b01011 V
b01000 w
#156
00
#161
b01100 C
b00011 E
b00000000000000000000000001011100 m
b00000000000000000000000001001101 n
b00011 /
10
b00000000000000000000000000111110 q
b00011 2
b00000000000000000000000000101111 r
b00011 4
b01101 T
b01110 U
b01111 V
b01100 w
#166
00
#171
b10000 C
b00100 E
1(
0)
0K
1l
b00000000000000000000000000000000 m
0.
1N
b00000000000000000000000000000000 n
b00100 /
10
b00000000000000000000000000000000 q
b00100 2
b00000000000000000000000000000000 r
b00100 4
b10001 T
b10010 U
b10011 V
b10000 w
#176
00
b00000000000000000000000000000000 Q
b00000000000000000000000000000000 R
b00000000000000000000000000000000 *
b00000000000000000000000000000000 +
