test_run_dir/MatMulMC_should_multiply_identity_no_parallelism/MatMulMC.vcd
$date
2024-03-01T20:58+0000
$end
$version
0.2
$end
$comment

$end
$timescale 1ns  $end
$scope module MatMulMC $end
 $var wire 3 ! colBIdx $end
 $var wire 32 " matrixAInternal_0_0 $end
 $var wire 32 # matrixBInternal_0_3 $end
 $var wire 32 $ matrixAInternal_0_1 $end
 $var wire 32 % matrixBInternal_0_2 $end
 $var wire 32 & matrixAInternal_0_2 $end
 $var wire 32 ' matrixBInternal_0_1 $end
 $var wire 32 ( matrixAInternal_0_3 $end
 $var wire 32 ) matrixBInternal_0_0 $end
 $var wire 32 * matrixBInternal_2_3 $end
 $var wire 32 + matrixBInternal_2_2 $end
 $var wire 32 , matrixBInternal_2_1 $end
 $var wire 32 - matrixBInternal_2_0 $end
 $var wire 1 . io_in_ready $end
 $var wire 1 / outputValid $end
 $var wire 32 0 io_in_bits_aBlock_1 $end
 $var wire 32 1 io_in_bits_aBlock_2 $end
 $var wire 32 2 io_in_bits_aBlock_0 $end
 $var wire 32 3 io_in_bits_aBlock_3 $end
 $var wire 64 4 product $end
 $var wire 5 5 rowBIdx $end
 $var wire 1 6 stateOutputting $end
 $var wire 5 7 rowCIdx_3 $end
 $var wire 1 8 clock $end
 $var wire 5 9 rowCIdx_1 $end
 $var wire 5 : rowCIdx_2 $end
 $var wire 32 ; resultMatrix_2_1 $end
 $var wire 32 < resultMatrix_2_0 $end
 $var wire 32 = resultMatrix_2_3 $end
 $var wire 32 > resultMatrix_2_2 $end
 $var wire 1 ? stateLoadMatrices $end
 $var wire 3 @ colIdx $end
 $var wire 32 A resultMatrix_0_3 $end
 $var wire 32 B resultMatrix_0_2 $end
 $var wire 32 C resultMatrix_0_1 $end
 $var wire 32 D resultMatrix_0_0 $end
 $var wire 5 E rowBIdx_1 $end
 $var wire 5 F loadCounterA $end
 $var wire 5 G loadCounterB $end
 $var wire 5 H loadCounterC $end
 $var wire 5 I rowBIdx_3 $end
 $var wire 5 J rowBIdx_2 $end
 $var wire 3 K rowCounter $end
 $var wire 5 L rowCIdx $end
 $var wire 3 M colCIdx_3 $end
 $var wire 3 N colCIdx_2 $end
 $var wire 3 O colCIdx_1 $end
 $var wire 5 P currIndA_3 $end
 $var wire 5 Q currIndA_1 $end
 $var wire 5 R currIndA_2 $end
 $var wire 1 S reset $end
 $var wire 1 T io_outBlock_valid $end
 $var wire 32 U matrixAInternal_3_2 $end
 $var wire 32 V matrixAInternal_3_3 $end
 $var wire 32 W matrixAInternal_3_0 $end
 $var wire 32 X matrixAInternal_3_1 $end
 $var wire 1 Y stateIdle $end
 $var wire 32 Z matrixAInternal_1_0 $end
 $var wire 32 [ matrixAInternal_1_1 $end
 $var wire 32 \ matrixAInternal_1_2 $end
 $var wire 32 ] matrixAInternal_1_3 $end
 $var wire 32 ^ io_in_bits_bBlock_3 $end
 $var wire 32 _ io_in_bits_bBlock_2 $end
 $var wire 32 ` io_in_bits_bBlock_1 $end
 $var wire 32 a io_in_bits_bBlock_0 $end
 $var wire 3 b colCIdx $end
 $var wire 5 c currIndC_1 $end
 $var wire 5 d currIndC_2 $end
 $var wire 5 e currIndC_3 $end
 $var wire 3 f colAIdx $end
 $var wire 32 g matrixBInternal_1_3 $end
 $var wire 32 h matrixBInternal_1_2 $end
 $var wire 32 i matrixBInternal_1_1 $end
 $var wire 32 j matrixBInternal_1_0 $end
 $var wire 5 k rowAIdx $end
 $var wire 3 l colCounter $end
 $var wire 1 m io_in_valid $end
 $var wire 32 n resultMatrix_3_0 $end
 $var wire 3 o innerCounter $end
 $var wire 32 p resultMatrix_3_3 $end
 $var wire 32 q resultMatrix_3_2 $end
 $var wire 32 r resultMatrix_3_1 $end
 $var wire 3 s colAIdx_3 $end
 $var wire 3 t colAIdx_2 $end
 $var wire 3 u colAIdx_1 $end
 $var wire 32 v resultMatrix_1_2 $end
 $var wire 32 w resultMatrix_1_1 $end
 $var wire 32 x resultMatrix_1_0 $end
 $var wire 32 y resultMatrix_1_3 $end
 $var wire 1 z inputReady $end
 $var wire 32 { io_outBlock_bits_3 $end
 $var wire 32 | io_outBlock_bits_2 $end
 $var wire 3 } colBIdx_2 $end
 $var wire 3 ~ colBIdx_3 $end
 $var wire 3 "! colBIdx_1 $end
 $var wire 5 "" rowAIdx_1 $end
 $var wire 5 "# rowAIdx_2 $end
 $var wire 5 "$ rowAIdx_3 $end
 $var wire 32 "% io_outBlock_bits_1 $end
 $var wire 32 "& io_outBlock_bits_0 $end
 $var wire 5 "' currIndB_2 $end
 $var wire 5 "( currIndB_3 $end
 $var wire 5 ") currIndB_1 $end
 $var wire 32 "* matrixBInternal_3_3 $end
 $var wire 32 "+ matrixBInternal_3_2 $end
 $var wire 32 ", matrixBInternal_3_1 $end
 $var wire 32 "- matrixBInternal_3_0 $end
 $var wire 1 ". stateMultiplying $end
 $var wire 32 "/ matrixAInternal_2_3 $end
 $var wire 32 "0 matrixAInternal_2_0 $end
 $var wire 32 "1 matrixAInternal_2_1 $end
 $var wire 32 "2 matrixAInternal_2_2 $end
 $var wire 5 "3 currIndC $end
 $var wire 5 "4 currIndB $end
 $var wire 5 "5 currIndA $end
$upscope $end
$enddefinitions $end
$dumpvars
b00000000000000000000000000000000 "/
b00000000000000000000000000000000 +
b00000000000000000000000000000000 *
b00000000000000000000000000000000 "-
b00000000000000000000000000000000 -
b00000000000000000000000000000000 ",
b00000000000000000000000000000000 ,
b00000000000000000000000000000000 '
b00000000000000000000000000000000 "2
b00000000000000000000000000000000 &
b00000000000000000000000000000000 "1
06
b00000000000000000000000000000000 )
b00000000000000000000000000000000 "0
b00000000000000000000000000000000 (
08
b00000000000000000000000000000000 #
b00000000000000000000000000000000 "&
b00000000000000000000000000000000 "
b00000000000000000000000000000000 "%
b00000000000000000000000000000000 %
b00000000000000000000000000000000 $
b00000000000000000000000000000000 "+
b00000000000000000000000000000000 "*
0?
b00000000000000000000000000000000 ;
b00000000000000000000000000000000 =
b00000000000000000000000000000000 <
b00000000000000000000000000000000 3
b00000000000000000000000000000000 2
b00000000000000000000000000000000 1
b00000000000000000000000000000000 0
0S
0T
0Y
0m
0z
0".
b0000000000000000000000000000000000000000000000000000000000000000 4
b000 s
b000 u
b000 t
b000 ~
b00000 "3
b00000 "5
b00000 "4
b000 }
b00000 ")
b000 f
b00000 "(
b00000 5
b00000 7
b000 b
b00000 9
b000 o
b00000 :
b00000 "#
b00000 ""
b00000 "$
b00000 "'
b000 l
b00000 E
b00000 G
b00000 F
b00000 I
b00000 H
b00000 J
b00000 L
b00000 Q
b00000 P
b00000 R
b00000000000000000000000000000000 j
b00000000000000000000000000000000 g
b00000000000000000000000000000000 i
b00000000000000000000000000000000 h
b000 O
b000 N
b000 K
b00000000000000000000000000000000 _
b00000000000000000000000000000000 ^
b000 M
b00000000000000000000000000000000 a
b00000000000000000000000000000000 `
b00000 c
b00000000000000000000000000000000 {
b00000 e
b00000 d
b00000000000000000000000000000000 |
b00000000000000000000000000000000 w
b00000000000000000000000000000000 v
b00000000000000000000000000000000 y
b000 "!
b00000000000000000000000000000000 x
b00000 k
b00000000000000000000000000000000 r
b000 @
b00000000000000000000000000000000 n
b00000000000000000000000000000000 q
b00000000000000000000000000000000 p
b00000000000000000000000000000000 C
b00000000000000000000000000000000 B
b00000000000000000000000000000000 D
b00000000000000000000000000000000 >
b00000000000000000000000000000000 A
b00000000000000000000000000000000 [
b00000000000000000000000000000000 Z
b00000000000000000000000000000000 ]
b00000000000000000000000000000000 \
b00000000000000000000000000000000 W
b00000000000000000000000000000000 V
b00000000000000000000000000000000 X
b000 !
b00000000000000000000000000000000 U
0.
0/
$end
#0
b00001 c
b00010 d
b00011 e
b00010 "'
b00011 "(
b00001 ")
b011 M
b010 N
b001 O
b00011 P
b00001 Q
b00010 R
1S
b011 s
b010 t
b001 u
b010 }
b011 ~
b001 "!
#1
18
1Y
1z
1.
#6
0S
08
1m
#11
18
0Y
1?
#16
b00000000000000000000000000000001 a
b00000000000000000000000000000001 2
08
#21
b00001 ""
b00001 "#
b00000000000000000000000000000001 "
b00001 "$
b00001 E
b00110 "'
b00100 F
b00111 "(
b00100 G
b00101 ")
b00000000000000000000000000000001 )
b00001 I
b00001 J
b00001 k
b00111 P
b00101 Q
b00110 R
b00100 "4
b00100 "5
b0000000000000000000000000000000000000000000000000000000000000001 4
b00001 5
18
#26
b00000000000000000000000000000001 0
b00000000000000000000000000000001 `
b00000000000000000000000000000000 a
b00000000000000000000000000000000 2
08
#31
b00010 ""
b00010 "#
b00010 "$
b00010 E
b01010 "'
b01000 F
b01011 "(
b01000 G
b01001 ")
b00010 I
b00000000000000000000000000000001 i
b00010 J
b00010 k
b01011 P
b01001 Q
b01010 R
b01000 "4
b01000 "5
b00010 5
18
b00000000000000000000000000000001 [
#36
b00000000000000000000000000000000 0
b00000000000000000000000000000000 `
b00000000000000000000000000000001 1
08
b00000000000000000000000000000001 _
#41
b00011 ""
b00011 "#
b00011 "$
b00011 E
b01110 "'
b01100 F
b01111 "(
b01100 G
b01101 ")
b00011 I
b00011 J
b00000000000000000000000000000001 +
b00011 k
b01111 P
b00000000000000000000000000000001 "2
b01101 Q
b01110 R
b01100 "4
b01100 "5
b00011 5
18
#46
b00000000000000000000000000000000 1
b00000000000000000000000000000001 3
08
b00000000000000000000000000000001 ^
b00000000000000000000000000000000 _
#51
b00100 ""
b00100 "#
b00100 "$
b00100 E
b10010 "'
b10000 F
b10011 "(
b10000 G
b10001 ")
b00000000000000000000000000000001 "*
b00100 I
b00100 J
1".
b10011 P
b10001 Q
b10010 R
b10000 "4
b10000 "5
b00000000000000000000000000000001 V
b00100 k
0.
b00100 5
18
0z
0?
#56
08
0m
#61
b0000000000000000000000000000000000000000000000000000000000000000 4
b00000000000000000000000000000001 D
18
b001 o
#66
08
#71
18
b010 o
#76
08
#81
18
b011 o
#86
08
#91
b001 @
18
b001 l
b000 o
#96
08
#101
18
b001 o
#106
08
#111
18
b010 o
#116
08
#121
18
b011 o
#126
08
#131
b010 @
18
b010 l
b000 o
#136
08
#141
18
b001 o
#146
08
#151
18
b010 o
#156
08
#161
18
b011 o
#166
08
#171
b011 @
18
b011 l
b000 o
#176
08
#181
18
b001 o
#186
08
#191
18
b010 o
#196
08
#201
18
b011 o
#206
08
#211
b000 @
18
b001 K
b000 l
b000 o
#216
08
#221
18
b001 o
#226
08
#231
18
b010 o
#236
08
#241
18
b011 o
#246
08
#251
b001 @
18
b001 l
b000 o
#256
08
#261
b0000000000000000000000000000000000000000000000000000000000000001 4
18
b001 o
#266
08
#271
b0000000000000000000000000000000000000000000000000000000000000000 4
b00000000000000000000000000000001 w
18
b010 o
#276
08
#281
18
b011 o
#286
08
#291
b010 @
18
b010 l
b000 o
#296
08
#301
18
b001 o
#306
08
#311
18
b010 o
#316
08
#321
18
b011 o
#326
08
#331
b011 @
18
b011 l
b000 o
#336
08
#341
18
b001 o
#346
08
#351
18
b010 o
#356
08
#361
18
b011 o
#366
08
#371
b000 @
18
b010 K
b000 l
b000 o
#376
08
#381
18
b001 o
#386
08
#391
18
b010 o
#396
08
#401
18
b011 o
#406
08
#411
b001 @
18
b001 l
b000 o
#416
08
#421
18
b001 o
#426
08
#431
18
b010 o
#436
08
#441
18
b011 o
#446
08
#451
b010 @
18
b010 l
b000 o
#456
08
#461
18
b001 o
#466
08
#471
b0000000000000000000000000000000000000000000000000000000000000001 4
18
b010 o
#476
08
#481
b0000000000000000000000000000000000000000000000000000000000000000 4
18
b00000000000000000000000000000001 >
b011 o
#486
08
#491
b011 @
18
b011 l
b000 o
#496
08
#501
18
b001 o
#506
08
#511
18
b010 o
#516
08
#521
18
b011 o
#526
08
#531
b000 @
18
b011 K
b000 l
b000 o
#536
08
#541
18
b001 o
#546
08
#551
18
b010 o
#556
08
#561
18
b011 o
#566
08
#571
b001 @
18
b001 l
b000 o
#576
08
#581
18
b001 o
#586
08
#591
18
b010 o
#596
08
#601
18
b011 o
#606
08
#611
b010 @
18
b010 l
b000 o
#616
08
#621
18
b001 o
#626
08
#631
18
b010 o
#636
08
#641
18
b011 o
#646
08
#651
b011 @
18
b011 l
b000 o
#656
08
#661
18
b001 o
#666
08
#671
18
b010 o
#676
08
#681
b0000000000000000000000000000000000000000000000000000000000000001 4
18
b011 o
#686
08
#691
b000 @
b00000000000000000000000000000001 p
b0000000000000000000000000000000000000000000000000000000000000000 4
1T
b00000000000000000000000000000001 "&
16
18
b000 l
0".
1/
b000 o
#696
08
#701
b00101 c
b00000000000000000000000000000001 "%
b00110 d
b00000000000000000000000000000000 "&
b00111 e
b00100 H
b00001 L
b00100 "3
b00001 7
18
b00001 9
b00001 :
#706
08
#711
b01001 c
b00000000000000000000000000000000 "%
b01010 d
b01011 e
b01000 H
b00010 L
b01000 "3
b00010 7
18
b00010 9
b00010 :
b00000000000000000000000000000001 |
#716
08
#721
b01101 c
b01110 d
b01111 e
b01100 H
b00011 L
b01100 "3
b00011 7
18
b00011 9
b00011 :
b00000000000000000000000000000001 {
b00000000000000000000000000000000 |
#726
08
#731
b10001 c
b10010 d
b10011 e
b10000 H
b00100 L
1.
0/
b10000 "3
0T
06
b00100 7
18
b00100 9
1Y
b00100 :
1z
b00000000000000000000000000000000 {
#736
b00000000000000000000000000000000 3
08
b00000000000000000000000000000000 ^
